%!PS-Adobe-3.0
%%Creator: cairo 1.11.2 (http://cairographics.org)
%%CreationDate: Tue May 19 11:18:56 2015
%%Pages: 1
%%DocumentData: Clean7Bit
%%LanguageLevel: 2
%%DocumentMedia: 3050x2050mm 8646 5812 0 () ()
%%BoundingBox: 0 0 8647 5812
%%EndComments
%%BeginProlog
/languagelevel where
{ pop languagelevel } { 1 } ifelse
2 lt { /Helvetica findfont 12 scalefont setfont 50 500 moveto
  (This print job requires a PostScript Language Level 2 printer.) show
  showpage quit } if
/q { gsave } bind def
/Q { grestore } bind def
/cm { 6 array astore concat } bind def
/w { setlinewidth } bind def
/J { setlinecap } bind def
/j { setlinejoin } bind def
/M { setmiterlimit } bind def
/d { setdash } bind def
/m { moveto } bind def
/l { lineto } bind def
/c { curveto } bind def
/h { closepath } bind def
/re { exch dup neg 3 1 roll 5 3 roll moveto 0 rlineto
      0 exch rlineto 0 rlineto closepath } bind def
/S { stroke } bind def
/f { fill } bind def
/f* { eofill } bind def
/n { newpath } bind def
/W { clip } bind def
/W* { eoclip } bind def
/BT { } bind def
/ET { } bind def
/pdfmark where { pop globaldict /?pdfmark /exec load put }
    { globaldict begin /?pdfmark /pop load def /pdfmark
    /cleartomark load def end } ifelse
/BDC { mark 3 1 roll /BDC pdfmark } bind def
/EMC { mark /EMC pdfmark } bind def
/cairo_store_point { /cairo_point_y exch def /cairo_point_x exch def } def
/Tj { show currentpoint cairo_store_point } bind def
/TJ {
  {
    dup
    type /stringtype eq
    { show } { -0.001 mul 0 cairo_font_matrix dtransform rmoveto } ifelse
  } forall
  currentpoint cairo_store_point
} bind def
/cairo_selectfont { cairo_font_matrix aload pop pop pop 0 0 6 array astore
    cairo_font exch selectfont cairo_point_x cairo_point_y moveto } bind def
/Tf { pop /cairo_font exch def /cairo_font_matrix where
      { pop cairo_selectfont } if } bind def
/Td { matrix translate cairo_font_matrix matrix concatmatrix dup
      /cairo_font_matrix exch def dup 4 get exch 5 get cairo_store_point
      /cairo_font where { pop cairo_selectfont } if } bind def
/Tm { 2 copy 8 2 roll 6 array astore /cairo_font_matrix exch def
      cairo_store_point /cairo_font where { pop cairo_selectfont } if } bind def
/g { setgray } bind def
/rg { setrgbcolor } bind def
/d1 { setcachedevice } bind def
%%EndProlog
%%Page: 1 1
%%BeginPageSetup
%%PageMedia: 3050x2050mm
%%PageBoundingBox: 0 0 8647 5812
%%EndPageSetup
q 0 0 8647 5812 rectclip q
0.137255 0.121569 0.12549 rg
0.25 w
0 J
0 j
[] 0.0 d
10 M q 1 0 0 -1 0 5811.825195 cm
504.391 1069.941 m 504.391 1071.836 l 505.324 1067.109 l 780.691 60.195
 l 964.258 60.195 l 1242.426 1069.941 l 1243.387 1076.563 l 1244.32 1067.109
 l 1461.957 60.195 l 1688.086 60.195 l 1360.711 1437.074 l 1151.59 1437.074
 l 876.254 449.094 l 870.566 449.094 l 594.293 1437.074 l 384.211 1437.074
 l 57.797 60.195 l 283.926 60.195 l h
S Q
0.25 w
q 1 0 0 -1 0 5811.825195 cm
2785.836 1437.074 m 2556.852 1437.074 l 2556.852 849.746 l 1939.93 849.746
 l 1939.93 1437.074 l 1710.012 1437.074 l 1710.012 60.199 l 1939.93 60.199
 l 1939.93 665.109 l 2556.852 665.109 l 2556.852 60.199 l 2785.836 60.199
 l h
S Q
0.25 w
q 1 0 0 -1 0 5811.825195 cm
3719 627.121 m 3719 512.406 3688.227 418.164 3626.738 344.391 c 3565.246
 270.645 3482.133 233.746 3377.418 233.746 c 3276.473 233.746 3196.684 270.645
 3138.023 344.391 c 3079.359 418.164 3050.043 512.406 3050.043 627.121 c
 3050.043 876.766 l 3050.043 992.77 3079.359 1087.809 3138.023 1161.883 
c 3196.684 1235.961 3276.801 1272.996 3378.383 1272.996 c 3483.727 1272.996
 3566.813 1236.125 3627.699 1162.352 c 3688.559 1088.605 3719 993.402 3719
 876.766 c h
3947.984 876.438 m 3947.984 1044.863 3895.148 1184.414 3789.504 1295.117
 c 3683.832 1405.816 3546.809 1461.152 3378.383 1461.152 c 3213.086 1461.152
 3078.895 1405.816 2975.746 1295.117 c 2872.602 1184.414 2821.059 1044.863
 2821.059 876.438 c 2821.059 628.547 l 2821.059 460.781 2872.602 321.367
 2975.746 210.363 c 3078.895 99.359 3212.785 43.832 3377.418 43.832 c 3545.848
 43.832 3683.035 99.359 3789.008 210.363 c 3894.984 321.367 3947.984 460.781
 3947.984 628.547 c h
S Q
1 g
453.109 3565.313 m 294.156 3565.313 l 294.156 2969.247 l 64.242 2969.247
 l 64.242 4346.833 l 294.156 4346.833 l 294.156 3763.06 l 425.672 3763.06
 l 858.059 4346.833 l 1130.547 4346.833 l 629.09 3689.259 l 1169.34 2969.247
 l 888.336 2969.247 l h
f
0.137255 0.121569 0.12549 rg
0.25 w
q 1 0 0 -1 0 5811.825195 cm
453.109 2246.512 m 294.156 2246.512 l 294.156 2842.578 l 64.242 2842.578
 l 64.242 1464.992 l 294.156 1464.992 l 294.156 2048.766 l 425.672 2048.766
 l 858.059 1464.992 l 1130.547 1464.992 l 629.09 2122.566 l 1169.34 2842.578
 l 888.336 2842.578 l h
S Q
1 g
2388.918 2969.243 m 2159.953 2969.243 l 1548.742 3974.993 l 1543.066 3973.103
 l 1543.066 2969.243 l 1313.152 2969.243 l 1313.152 4346.829 l 1543.066 
4346.829 l 2154.273 3342.024 l 2159.953 3343.919 l 2159.953 4346.829 l 2388.918
 4346.829 l h
f
0.137255 0.121569 0.12549 rg
0.25 w
q 1 0 0 -1 0 5811.825195 cm
2265.719 2842.582 m 2036.754 2842.582 l 1425.543 1836.832 l 1419.867 1838.723
 l 1419.867 2842.582 l 1189.953 2842.582 l 1189.953 1464.996 l 1419.867 
1464.996 l 2031.074 2469.801 l 2036.754 2467.906 l 2036.754 1464.996 l 2265.719
 1464.996 l h
S Q
1 g
3535.645 3783.872 m 3535.645 3898.677 3504.895 3992.974 3443.395 4066.771
 c 3381.895 4140.567 3298.781 4177.474 3194.086 4177.474 c 3093.164 4177.474
 3013.371 4140.567 2954.711 4066.771 c 2896.051 3992.974 2866.719 3898.677
 2866.719 3783.872 c 2866.719 3534.095 l 2866.719 3418.032 2896.051 3322.942
 2954.711 3248.829 c 3013.371 3174.7 3093.465 3137.657 3195.031 3137.657
 c 3300.371 3137.657 3383.461 3174.56 3444.34 3248.356 c 3505.211 3322.153
 3535.645 3417.392 3535.645 3534.095 c h
3764.609 3534.095 m 3764.609 3365.681 3711.77 3226.122 3606.133 3115.427
 c 3500.48 3004.728 3363.445 2949.38 3195.031 2949.38 c 3029.773 2949.38
 2895.578 3004.728 2792.449 3115.427 c 2689.32 3226.122 2637.754 3365.681
 2637.754 3534.095 c 2637.754 3781.981 l 2637.754 3949.767 2689.32 4089.149
 2792.449 4200.181 c 2895.578 4311.192 3029.457 4366.696 3194.086 4366.696
 c 3362.5 4366.696 3499.691 4311.192 3605.66 4200.181 c 3711.625 4089.149
 3764.609 3949.767 3764.609 3781.981 c h
f
0.137255 0.121569 0.12549 rg
0.25 w
q 1 0 0 -1 0 5811.825195 cm
3183.645 2027.953 m 3183.645 1913.148 3152.895 1818.852 3091.395 1745.055
 c 3029.895 1671.258 2946.781 1634.352 2842.086 1634.352 c 2741.164 1634.352
 2661.371 1671.258 2602.711 1745.055 c 2544.051 1818.852 2514.719 1913.148
 2514.719 2027.953 c 2514.719 2277.73 l 2514.719 2393.793 2544.051 2488.883
 2602.711 2562.996 c 2661.371 2637.125 2741.465 2674.168 2843.031 2674.168
 c 2948.371 2674.168 3031.461 2637.266 3092.34 2563.469 c 3153.211 2489.672
 3183.645 2394.434 3183.645 2277.73 c h
3412.609 2277.73 m 3412.609 2446.145 3359.77 2585.703 3254.133 2696.398
 c 3148.48 2807.098 3011.445 2862.445 2843.031 2862.445 c 2677.773 2862.445
 2543.578 2807.098 2440.449 2696.398 c 2337.32 2585.703 2285.754 2446.145
 2285.754 2277.73 c 2285.754 2029.844 l 2285.754 1862.059 2337.32 1722.676
 2440.449 1611.645 c 2543.578 1500.633 2677.457 1445.129 2842.086 1445.129
 c 3010.5 1445.129 3147.691 1500.633 3253.66 1611.645 c 3359.625 1722.676
 3412.609 1862.059 3412.609 2029.844 c h
S Q
1 g
4347.434 3336.349 m 4347.434 3334.454 l 4348.383 3339.185 l 4623.707 4346.829
 l 4807.262 4346.829 l 5085.426 3336.349 l 5086.371 3329.724 l 5087.32 3339.185
 l 5304.934 4346.829 l 5531.059 4346.829 l 5203.695 2969.247 l 4994.598 
2969.247 l 4719.27 3957.962 l 4713.594 3957.962 l 4437.32 2969.247 l 4227.273
 2969.247 l 3900.855 4346.829 l 4126.984 4346.829 l h
f
0.137255 0.121569 0.12549 rg
0.25 w
q 1 0 0 -1 0 5811.825195 cm
491.16 3941.563 m 491.16 3943.461 l 492.109 3938.727 l 767.434 2931.086
 l 950.988 2931.086 l 1229.152 3941.563 l 1230.098 3948.188 l 1231.047 3938.727
 l 1448.66 2931.086 l 1674.785 2931.086 l 1347.422 4308.668 l 1138.324 4308.668
 l 862.996 3319.953 l 857.32 3319.953 l 581.047 4308.668 l 371 4308.668 
l 44.582 2931.086 l 270.711 2931.086 l h
S Q
0.25 w
q 1 0 0 -1 0 5811.825195 cm
4243.512 2487.672 m 4243.512 2430.523 4222.223 2383.738 4179.645 2347.316
 c 4137.07 2310.887 4061.852 2278.234 3953.988 2249.348 c 3800.086 2208.988
 3681.645 2155.531 3598.715 2088.977 c 3515.77 2022.434 3474.297 1935.23
 3474.297 1827.367 c 3474.297 1716.355 3520.184 1624.895 3611.961 1552.984
 c 3703.734 1481.078 3822.148 1445.129 3967.234 1445.129 c 4118.617 1445.129
 4240.199 1485.969 4331.973 1567.648 c 4423.75 1649.352 4468.063 1747.273
 4464.906 1861.43 c 4463.016 1867.109 l 4242.563 1867.109 l 4242.563 1796.477
 4218.582 1739.234 4170.656 1695.383 c 4122.719 1651.539 4054.281 1629.621
 3965.344 1629.621 c 3881.453 1629.621 3816.945 1647.879 3771.859 1684.383
 c 3726.758 1720.898 3704.207 1768.09 3704.207 1825.977 c 3704.207 1878.227
 3728.648 1921.652 3777.535 1956.27 c 3826.406 1990.895 3907.301 2023.602
 4020.219 2054.441 c 4168.438 2094.184 4281.027 2149.059 4357.992 2219.07
 c 4434.945 2289.086 4473.422 2378.355 4473.422 2486.828 c 4473.422 2601.645
 4427.535 2692.941 4335.758 2760.734 c 4243.984 2828.547 4123.352 2862.445
 3973.859 2862.445 c 3830.047 2862.445 3703.879 2824.133 3595.402 2747.488
 c 3486.91 2670.855 3434.23 2566.309 3437.395 2433.848 c 3439.289 2428.172
 l 3660.688 2428.172 l 3660.688 2512.063 3689.688 2574.68 3747.73 2615.98
 c 3805.762 2657.297 3881.137 2677.949 3973.859 2677.949 c 4059.012 2677.949
 4125.242 2660.844 4172.551 2626.621 c 4219.855 2592.402 4243.512 2546.078
 4243.512 2487.672 c h
S Q
0.25 w
q 1 0 0 -1 0 5811.825195 cm
489.074 4942.633 m 489.074 4944.578 l 490.047 4939.711 l 773.313 3903 l
 962.16 3903 l 1248.352 4942.633 l 1249.324 4949.445 l 1250.301 4939.711
 l 1474.188 3903 l 1706.84 3903 l 1370.031 5320.328 l 1154.902 5320.328 
l 871.633 4303.086 l 865.789 4303.086 l 581.547 5320.328 l 365.445 5320.328
 l 29.609 3903 l 262.262 3903 l h
S Q
0.25 w
q 1 0 0 -1 0 5811.825195 cm
2824.109 4351.184 m 2588.539 4351.184 l 2588.539 3746.676 l 1953.859 3746.676
 l 1953.859 4351.184 l 1717.313 4351.184 l 1717.313 2933.855 l 1953.859 
2933.855 l 1953.859 3556.855 l 2588.539 3556.855 l 2588.539 2933.855 l 2824.109
 2933.855 l h
S Q
0.25 w
q 1 0 0 -1 0 5811.825195 cm
2053.676 4791.75 m 2473.227 4791.75 l 2267.832 4186.273 l 2261.988 4186.273
 l h
2540.391 4989.359 m 1985.535 4989.359 l 1872.613 5320.328 l 1633.148 5320.328
 l 2153.938 3903 l 2377.828 3903 l 2892.777 5320.328 l 2652.336 5320.328
 l h
S Q
0.25 w
q 1 0 0 -1 0 5811.825195 cm
3952.715 3114.535 m 3524.402 3114.535 l 3524.402 4342.043 l 3287.855 4342.043
 l 3287.855 3114.535 l 2859.543 3114.535 l 2859.543 2924.715 l 3952.715 
2924.715 l h
S Q
0.25 w
q 1 0 0 -1 0 5811.825195 cm
4839.414 724.383 m 5152.242 724.383 l 5238.605 724.383 5303.523 701.352
 5347.043 655.293 c 5390.543 609.23 5412.293 550.695 5412.293 479.684 c 
5412.293 408.676 5390.543 349.512 5347.043 302.16 c 5303.523 254.82 5238.605
 231.148 5152.242 231.148 c 4839.414 231.148 l h
4839.414 911.504 m 4839.414 1441.199 l 4606.23 1441.199 l 4606.23 44.027
 l 5152.242 44.027 l 5306.402 44.027 5427.168 83.852 5514.488 163.5 c 5601.813
 243.145 5645.477 347.902 5645.477 477.766 c 5645.477 608.91 5601.813 713.988
 5514.488 792.992 c 5427.168 872.012 5306.402 911.504 5152.242 911.504 c
 h
S Q
0.25 w
q 1 0 0 -1 0 5811.825195 cm
6004.52 990.313 m 6004.52 1926.879 l 6004.52 2081.711 5953.98 2200.527 
5852.902 2283.371 c 5751.813 2366.227 5619.723 2407.637 5456.59 2407.637
 c 5296.656 2407.637 5167.113 2366.055 5067.953 2282.891 c 4968.781 2199.738
 4919.215 2081.055 4919.215 1926.879 c 4919.215 990.313 l 5152.398 990.313
 l 5152.398 1926.148 l 5152.398 2023.961 5179.895 2097.473 5234.922 2146.68
 c 5289.941 2195.914 5363.828 2220.516 5456.59 2220.516 c 5552.551 2220.516
 5628.984 2195.914 5685.934 2146.68 c 5742.871 2097.473 5771.336 2023.961
 5771.336 1926.148 c 5771.336 990.313 l h
S Q
0.25 w
q 1 0 0 -1 0 5811.825195 cm
4838.27 2662.078 m 5480.238 2662.078 l 5480.238 2849.199 l 4605.086 2849.199
 l 4605.086 1452.027 l 4838.27 1452.027 l h
S Q
0.25 w
q 1 0 0 -1 0 5811.825195 cm
3806.453 4363.891 m 4448.426 4363.891 l 4448.426 4551.012 l 3573.27 4551.012
 l 3573.27 3153.84 l 3806.453 3153.84 l h
S Q
0.25 w
q 1 0 0 -1 0 5811.825195 cm
5773.992 381.352 m 5912.816 381.352 l 5951.141 381.352 5979.949 371.133
 5999.258 350.695 c 6018.563 330.254 6028.215 304.277 6028.215 272.766 c
 6028.215 241.254 6018.563 215 5999.258 193.988 c 5979.949 172.977 5951.141
 162.473 5912.816 162.473 c 5773.992 162.473 l h
5773.992 464.391 m 5773.992 699.453 l 5670.516 699.453 l 5670.516 79.434
 l 5912.816 79.434 l 5981.227 79.434 6034.816 97.105 6073.566 132.453 c 
6112.32 167.797 6131.695 214.285 6131.695 271.914 c 6131.695 330.113 6112.32
 376.742 6073.566 411.801 c 6034.816 446.867 5981.227 464.391 5912.816 464.391
 c h
S Q
0.25 w
q 1 0 0 -1 0 5811.825195 cm
971.48 1780.691 103.48 664.305 re S Q
0.25 w
q 1 0 0 -1 0 5811.825195 cm
6011.84 565.352 m 5986.289 565.352 5965.277 575.508 5948.816 595.801 c 
5932.352 616.098 5922.129 641.863 5918.156 673.09 c 5919.008 675.219 l 6101.691
 675.219 l 6101.691 664.574 l 6101.691 635.34 6094.238 611.492 6079.336 
593.031 c 6064.43 574.578 6041.926 565.352 6011.84 565.352 c h
6023.762 960.527 m 5958.461 960.527 5906.445 939.172 5867.691 896.441 c
 5828.941 853.715 5809.566 798.859 5809.566 731.855 c 5809.566 714.82 l 
5809.566 647.824 5828.797 592.254 5867.27 548.105 c 5905.734 503.969 5953.926
 482.039 6011.84 482.316 c 6074.012 482.316 6121.633 501.125 6154.707 538.738
 c 6187.773 576.359 6204.316 626.82 6204.316 690.125 c 6204.316 751.02 l
 5916.879 751.02 l 5916.027 753.141 l 5917.73 789.645 5928.441 819.488 5948.176
 842.691 c 5967.906 865.895 5995.23 877.492 6030.152 877.492 c 6057.973 
877.492 6081.816 874.086 6101.691 867.27 c 6121.559 860.457 6140.719 850.664
 6159.18 837.887 c 6192.395 905.742 l 6175.078 921.152 6152.082 934.141 
6123.41 944.691 c 6094.73 955.246 6061.516 960.527 6023.762 960.527 c h
S Q
0.25 w
q 1 0 0 -1 0 5811.825195 cm
6341.125 470.199 m 6367.246 470.199 6390.738 463.668 6411.602 450.609 c
 6432.469 437.555 6446.309 422.652 6453.121 405.898 c 6453.121 337.762 l
 6370.934 337.762 l 6340.844 337.762 6317.281 345.215 6300.246 360.121 c
 6283.215 375.023 6274.695 392.551 6274.695 412.711 c 6274.695 430.316 6280.445
 444.293 6291.941 454.656 c 6303.438 465.023 6319.836 470.199 6341.125 470.199
 c h
6468.027 544.293 m 6464.336 532.652 6461.277 521.297 6458.871 510.227 c
 6456.457 499.156 6454.824 488.082 6453.973 477.008 c 6439.773 498.586 6421.113
 516.684 6397.977 531.305 c 6374.832 545.926 6348.934 553.234 6320.262 553.234
 c 6272.281 553.234 6235.449 540.887 6209.758 516.188 c 6184.059 491.488
 6171.219 457.57 6171.219 414.414 c 6171.219 369.848 6188.82 335.145 6224.023
 310.297 c 6259.219 285.457 6308.762 273.035 6372.637 273.035 c 6453.121
 273.035 l 6453.121 232.582 l 6453.121 208.457 6446.023 189.574 6431.828
 175.945 c 6417.629 162.32 6397.336 155.504 6370.934 155.504 c 6347.367 
155.504 6328.629 161.188 6314.727 172.539 c 6300.813 183.895 6293.855 198.516
 6293.855 216.398 c 6194.215 216.398 l 6193.789 213.844 l 6191.801 177.508
 6208.055 145.285 6242.547 117.18 c 6277.039 89.074 6321.965 75.023 6377.324
 75.023 c 6430.977 75.023 6474.266 88.648 6507.203 115.902 c 6540.133 143.156
 6556.598 182.332 6556.598 233.434 c 6556.598 438.262 l 6556.598 457.281
 6557.875 475.52 6560.434 492.98 c 6562.988 510.441 6567.098 527.543 6572.781
 544.293 c h
S Q
0.25 w
q 1 0 0 -1 0 5811.825195 cm
6924.094 419.098 m 6924.094 403.199 6917.281 390 6903.656 379.496 c 6890.027
 368.996 6864.621 359.766 6827.43 351.816 c 6772.352 340.176 6730.695 323.645
 6702.449 302.207 c 6674.195 280.773 6660.074 251.602 6660.074 214.695 c
 6660.074 176.094 6676.402 143.156 6709.047 115.902 c 6741.691 88.648 6784.699
 75.023 6838.074 75.023 c 6894.285 75.023 6938.93 88.863 6972.004 116.543
 c 7005.07 144.223 7020.902 178.5 7019.48 219.379 c 7018.633 221.938 l 6919.41
 221.938 l 6919.41 202.922 6912.172 186.59 6897.691 172.965 c 6883.215 159.34
 6863.344 152.523 6838.074 152.523 c 6813.094 152.523 6794.066 158.133 6781.016
 169.344 c 6767.957 180.566 6761.426 194.258 6761.426 210.438 c 6761.426
 226.617 6767.602 239.465 6779.949 248.977 c 6792.301 258.492 6817.352 266.934
 6855.109 274.313 c 6913.023 286.238 6955.961 303.059 6983.926 324.773 c
 7011.883 346.492 7025.871 376.09 7025.871 413.563 c 7025.871 455.016 7008.766
 488.656 6974.555 514.484 c 6940.344 540.32 6895.281 553.234 6839.355 553.234
 c 6779.453 553.234 6732.188 537.906 6697.551 507.246 c 6662.91 476.586 
6646.449 441.391 6648.152 401.637 c 6649.004 399.082 l 6745.246 399.082 
l 6746.375 425.77 6756.031 445.223 6774.199 457.422 c 6792.363 469.629 6814.508
 475.734 6840.633 475.734 c 6867.313 475.734 6887.898 470.625 6902.379 460.402
 c 6916.855 450.184 6924.094 436.414 6924.094 419.098 c h
S Q
0.25 w
q 1 0 0 -1 0 5811.825195 cm
7304.367 158.059 m 7278.816 158.059 7257.801 168.215 7241.344 188.508 c
 7224.879 208.805 7214.656 234.57 7210.68 265.797 c 7211.535 267.926 l 7394.219
 267.926 l 7394.219 257.281 l 7394.219 228.047 7386.766 204.199 7371.863
 185.738 c 7356.957 167.285 7334.453 158.059 7304.367 158.059 c h
7316.289 553.234 m 7250.988 553.234 7198.973 531.879 7160.219 489.148 c
 7121.469 446.422 7102.094 391.566 7102.094 324.563 c 7102.094 307.527 l
 7102.094 240.531 7121.32 184.961 7159.797 140.813 c 7198.262 96.676 7246.453
 74.746 7304.367 75.023 c 7366.539 75.023 7414.16 93.832 7447.234 131.445
 c 7480.301 169.066 7496.844 219.527 7496.844 282.832 c 7496.844 343.727
 l 7209.406 343.727 l 7208.555 345.848 l 7210.258 382.352 7220.969 412.195
 7240.703 435.398 c 7260.434 458.602 7287.758 470.199 7322.676 470.199 c
 7350.5 470.199 7374.344 466.793 7394.219 459.977 c 7414.086 453.164 7433.246
 443.371 7451.707 430.594 c 7484.922 498.449 l 7467.602 513.859 7444.609
 526.848 7415.934 537.398 c 7387.258 547.953 7354.043 553.234 7316.289 553.234
 c h
S Q
0.25 w
q 1 0 0 -1 0 5811.825195 cm
7761.945 163.867 m 7717.656 162.164 l 7697.496 162.164 7680.676 166.422
 7667.195 174.938 c 7653.711 183.457 7643.277 195.523 7635.898 211.137 c
 7635.898 531.363 l 7532.422 531.363 l 7532.422 70.609 l 7626.957 70.609
 l 7633.77 137.465 l 7645.41 113.902 7660.383 95.457 7678.695 82.105 c 7697.008
 68.762 7718.086 62.094 7741.93 62.094 c 7748.172 62.094 7753.996 62.59 
7759.391 63.582 c 7764.777 64.582 7769.754 65.785 7774.297 67.203 c h
S Q
0.25 w
q 1 0 0 -1 0 5811.825195 cm
6416.688 668.793 m 6391.137 668.793 6370.125 678.949 6353.664 699.238 c
 6337.199 719.539 6326.977 745.301 6323.004 776.531 c 6323.855 778.66 l 
6506.539 778.66 l 6506.539 768.012 l 6506.539 738.777 6499.086 714.93 6484.184
 696.473 c 6469.277 678.02 6446.773 668.793 6416.688 668.793 c h
6428.609 1063.969 m 6363.309 1063.969 6311.293 1042.613 6272.543 999.879
 c 6233.793 957.156 6214.414 902.297 6214.414 835.293 c 6214.414 818.262
 l 6214.414 751.262 6233.645 695.691 6272.117 651.547 c 6310.582 607.406
 6358.773 585.477 6416.688 585.754 c 6478.859 585.754 6526.484 604.563 6559.555
 642.18 c 6592.621 679.801 6609.164 730.262 6609.164 793.563 c 6609.164 
854.457 l 6321.727 854.457 l 6320.875 856.582 l 6322.578 893.086 6333.289
 922.93 6353.027 946.129 c 6372.754 969.332 6400.082 980.93 6435 980.93 
c 6462.82 980.93 6486.668 977.523 6506.539 970.711 c 6526.406 963.898 6545.566
 954.102 6564.027 941.328 c 6597.242 1009.184 l 6579.926 1024.59 6556.93
 1037.578 6528.254 1048.129 c 6499.578 1058.688 6466.363 1063.969 6428.609
 1063.969 c h
S Q
0.25 w
q 1 0 0 -1 0 5811.825195 cm
6728.98 587.809 m 6734.516 647.852 l 6749.563 625.988 6768.434 609.098 
6791.152 597.176 c 6813.863 585.25 6840.125 579.289 6869.93 579.289 c 6900.02
 579.289 6925.855 586.105 6947.434 599.73 c 6969.004 613.355 6985.184 633.797
 6995.98 661.051 c 7010.172 635.5 7028.91 615.484 7052.188 601.008 c 7075.461
 586.531 7102.715 579.289 7133.949 579.289 c 7180.219 579.289 7216.773 595.117
 7243.602 626.77 c 7270.43 658.43 7283.844 706.473 7283.844 770.918 c 7283.844
 1048.563 l 7180.363 1048.563 l 7180.363 770.492 l 7180.363 731.313 7173.617
 703.781 7160.141 687.879 c 7146.652 671.98 7126.426 664.031 7099.457 664.031
 c 7077.313 664.031 7058.574 669.992 7043.246 681.918 c 7027.918 693.84 
7016.844 709.879 7010.031 730.035 c 7010.031 734.293 7010.172 737.984 7010.457
 741.109 c 7010.734 744.238 7010.883 747.219 7010.883 750.051 c 7010.883
 1048.563 l 6907.406 1048.563 l 6907.406 770.492 l 6907.406 732.738 6900.52
 705.551 6886.75 688.941 c 6872.977 672.336 6852.75 664.031 6826.07 664.031
 c 6805.055 664.031 6787.25 668.078 6772.629 676.168 c 6758 684.258 6746.441
 695.691 6737.922 710.449 c 6737.922 1048.563 l 6634.445 1048.563 l 6634.445
 587.809 l h
S Q
0.25 w
q 1 0 0 -1 0 5811.825195 cm
7418.988 822.648 m 7418.988 867.438 7427.781 904.012 7445.387 932.367 c
 7462.699 960.43 7489.953 974.465 7527.148 974.465 c 7563.199 974.465 7590.172
 960.43 7608.059 932.367 c 7626.223 904.012 7635.313 867.438 7635.313 822.648
 c 7635.313 813.719 l 7635.313 769.781 7626.223 733.633 7608.059 705.277
 c 7590.172 676.648 7562.922 662.328 7526.297 662.328 c 7490.242 662.328
 7463.273 676.648 7445.387 705.277 c 7427.781 733.914 7418.988 770.059 7418.988
 813.719 c h
7315.508 813.926 m 7315.508 745.516 7334.246 689.305 7371.719 645.293 c
 7409.762 601.293 7461.289 579.289 7526.297 579.289 c 7592.445 579.289 7644.254
 601.293 7681.727 645.293 c 7719.48 689.016 7738.363 745.223 7738.363 813.926
 c 7738.363 822.867 l 7738.363 892.137 7719.48 948.637 7681.727 992.352 
c 7644.254 1035.785 7592.727 1057.504 7527.148 1057.504 c 7461.289 1057.504
 7409.473 1035.645 7371.719 991.926 c 7334.246 948.211 7315.508 891.852 
7315.508 822.867 c h
S Q
0.25 w
q 1 0 0 -1 0 5811.825195 cm
7910.828 892.707 m 7918.492 930.18 l 7921.047 930.18 l 7929.141 892.707
 l 8020.691 587.809 l 8127.578 587.809 l 7964.059 1048.563 l 7874.207 1048.563
 l 7709.832 587.809 l 7816.719 587.809 l h
S Q
0.25 w
q 1 0 0 -1 0 5811.825195 cm
7945.746 170.988 m 7920.195 170.988 7899.18 181.145 7882.723 201.438 c 
7866.254 221.734 7856.035 247.5 7852.063 278.727 c 7852.914 280.855 l 8035.598
 280.855 l 8035.598 270.211 l 8035.598 240.977 8028.145 217.129 8013.242
 198.668 c 7998.336 180.215 7975.832 170.988 7945.746 170.988 c h
7957.668 566.164 m 7892.367 566.164 7840.352 544.809 7801.598 502.078 c
 7762.848 459.352 7743.473 404.496 7743.473 337.492 c 7743.473 320.457 l
 7743.473 253.461 7762.703 197.891 7801.176 153.742 c 7839.641 109.605 7887.832
 87.676 7945.746 87.953 c 8007.918 87.953 8055.539 106.762 8088.613 144.375
 c 8121.68 181.996 8138.223 232.457 8138.223 295.762 c 8138.223 356.656 
l 7850.785 356.656 l 7849.934 358.777 l 7851.637 395.281 7862.348 425.125
 7882.082 448.328 c 7901.813 471.531 7929.137 483.129 7964.055 483.129 c
 7991.875 483.129 8015.723 479.723 8035.598 472.906 c 8055.461 466.094 8074.625
 456.301 8093.086 443.523 c 8126.297 511.379 l 8108.98 526.789 8085.988 
539.777 8057.313 550.328 c 8028.633 560.883 7995.422 566.164 7957.668 566.164
 c h
S Q
0.25 w
q 1 0 0 -1 0 5811.825195 cm
6219.277 998.887 m 6219.277 1110.883 l 6301.891 1110.883 l 6301.891 1187.535
 l 6219.277 1187.535 l 6219.277 1442.184 l 6219.277 1461.203 6223.391 1474.758
 6231.629 1482.852 c 6239.863 1490.941 6250.789 1494.988 6264.418 1494.988
 c 6270.098 1494.988 6275.633 1494.496 6281.023 1493.496 c 6286.414 1492.504
 6291.523 1491.156 6296.355 1489.449 c 6307.426 1565.25 l 6298.629 1570.082
 6288.117 1573.832 6275.914 1576.535 c 6263.707 1579.234 6251.07 1580.578
 6238.016 1580.578 c 6199.969 1580.578 6170.16 1569.445 6148.59 1547.152
 c 6127.016 1524.867 6116.227 1489.875 6116.227 1442.184 c 6116.227 1187.535
 l 6045.965 1187.535 l 6045.965 1110.883 l 6116.227 1110.883 l 6116.227 
998.887 l h
S Q
0.25 w
q 1 0 0 -1 0 5811.825195 cm
8251.5 315.645 m 8266.828 294.074 8285.496 277.32 8307.496 265.395 c 8329.492
 253.473 8353.844 247.512 8380.527 247.512 c 8429.352 247.512 8467.465 262.91
 8494.863 293.711 c 8522.262 324.523 8535.957 372 8535.957 436.156 c 8535.957
 716.781 l 8432.48 716.781 l 8432.48 435.305 l 8432.48 398.965 8425.242 
372.707 8410.762 356.523 c 8396.285 340.344 8374.566 332.25 8345.609 332.25
 c 8325.449 332.25 8307.352 336.445 8291.316 344.813 c 8275.277 353.188 
8261.996 364.762 8251.5 379.52 c 8251.5 716.781 l 8148.023 716.781 l 8148.023
 52.477 l 8251.5 52.477 l h
S Q
0.25 w
q 1 0 0 -1 0 5811.825195 cm
6524.934 1162.547 m 6499.383 1162.547 6478.371 1172.703 6461.91 1192.996
 c 6445.445 1213.293 6435.223 1239.059 6431.25 1270.285 c 6432.102 1272.414
 l 6614.785 1272.414 l 6614.785 1261.77 l 6614.785 1232.531 6607.332 1208.688
 6592.43 1190.227 c 6577.523 1171.773 6555.02 1162.547 6524.934 1162.547
 c h
6536.855 1557.723 m 6471.555 1557.723 6419.539 1536.367 6380.789 1493.637
 c 6342.039 1450.91 6322.66 1396.055 6322.66 1329.051 c 6322.66 1312.016
 l 6322.66 1245.02 6341.891 1189.445 6380.363 1145.301 c 6418.828 1101.16
 6467.02 1079.234 6524.934 1079.512 c 6587.105 1079.512 6634.727 1098.316
 6667.801 1135.934 c 6700.871 1173.555 6717.41 1224.016 6717.41 1287.316
 c 6717.41 1348.215 l 6429.973 1348.215 l 6429.121 1350.336 l 6430.824 1386.84
 6441.535 1416.684 6461.27 1439.887 c 6481 1463.09 6508.324 1474.688 6543.246
 1474.688 c 6571.066 1474.688 6594.914 1471.277 6614.785 1464.465 c 6634.652
 1457.652 6653.813 1447.859 6672.273 1435.082 c 6705.488 1502.938 l 6688.168
 1518.348 6665.176 1531.336 6636.5 1541.887 c 6607.824 1552.441 6574.609
 1557.723 6536.855 1557.723 c h
S Q
0.25 w
q 1 0 0 -1 0 5811.825195 cm
7043.137 1297.723 m 7043.137 1250.668 7034.262 1212.184 7016.523 1182.266
 c 6998.781 1152.359 6972.301 1137.402 6937.105 1137.402 c 6915.531 1137.402
 6897.219 1142.016 6882.172 1151.223 c 6867.121 1160.438 6855.059 1173.266
 6845.977 1189.707 c 6845.977 1397.652 l 6855.059 1413.816 6867.121 1426.219
 6882.172 1434.863 c 6897.219 1443.516 6915.813 1447.836 6937.957 1447.836
 c 6973.152 1447.836 6999.492 1434.863 7016.949 1408.926 c 7034.41 1382.988
 7043.137 1348.895 7043.137 1306.652 c h
7146.191 1306.883 m 7146.191 1373.887 7130.434 1427.969 7098.922 1469.125
 c 7067.41 1510.289 7023.551 1530.871 6967.34 1530.871 c 6941.215 1530.871
 6918.082 1526.188 6897.926 1516.82 c 6877.766 1507.453 6860.453 1493.684
 6845.977 1475.516 c 6845.977 1699.078 l 6742.496 1699.078 l 6742.496 1061.176
 l 6829.793 1061.176 l 6840.016 1119.09 l 6854.77 1097.52 6872.59 1081.047
 6893.457 1069.691 c 6914.324 1058.344 6938.523 1052.66 6966.063 1052.66
 c 7022.84 1052.66 7067.051 1075.164 7098.711 1120.152 c 7130.363 1165.152
 7146.191 1224.418 7146.191 1297.941 c h
S Q
0.25 w
q 1 0 0 -1 0 5811.825195 cm
7406.563 1181.863 m 7362.277 1180.16 l 7342.117 1180.16 7325.293 1184.418
 7311.816 1192.934 c 7298.332 1201.449 7287.898 1213.52 7280.516 1229.129
 c 7280.516 1549.359 l 7177.039 1549.359 l 7177.039 1088.605 l 7271.574 
1088.605 l 7278.387 1155.461 l 7290.027 1131.898 7305 1113.449 7323.313 
1100.102 c 7341.625 1086.758 7362.703 1080.086 7386.551 1080.086 c 7392.789
 1080.086 7398.617 1080.582 7404.008 1081.578 c 7409.398 1082.578 7414.371
 1083.777 7418.914 1085.195 c h
S Q
0.25 w
q 1 0 0 -1 0 5811.825195 cm
7490.129 1350.875 m 7490.129 1395.664 7498.922 1432.238 7516.531 1460.594
 c 7533.84 1488.656 7561.094 1502.691 7598.289 1502.691 c 7634.34 1502.691
 7661.316 1488.656 7679.199 1460.594 c 7697.363 1432.238 7706.453 1395.664
 7706.453 1350.875 c 7706.453 1341.945 l 7706.453 1298.008 7697.363 1261.859
 7679.199 1233.504 c 7661.316 1204.875 7634.063 1190.555 7597.438 1190.555
 c 7561.387 1190.555 7534.414 1204.875 7516.531 1233.504 c 7498.922 1262.141
 7490.129 1298.285 7490.129 1341.945 c h
7386.652 1342.152 m 7386.652 1273.742 7405.387 1217.531 7442.859 1173.52
 c 7480.902 1129.52 7532.43 1107.516 7597.438 1107.516 c 7663.586 1107.516
 7715.395 1129.52 7752.867 1173.52 c 7790.621 1217.242 7809.504 1273.449
 7809.504 1342.152 c 7809.504 1351.094 l 7809.504 1420.363 7790.621 1476.863
 7752.867 1520.578 c 7715.395 1564.012 7663.871 1585.73 7598.289 1585.73
 c 7532.43 1585.73 7480.613 1563.871 7442.859 1520.152 c 7405.387 1476.438
 7386.652 1420.078 7386.652 1351.094 c h
S Q
0.25 w
q 1 0 0 -1 0 5811.825195 cm
8030.703 1479.836 m 8055.969 1479.836 8077.262 1472.43 8094.578 1457.602
 c 8111.891 1442.781 8120.555 1424.215 8120.555 1401.906 c 8214.238 1401.906
 l 8215.09 1404.461 l 8216.508 1447.617 8198.973 1484.805 8162.5 1516.031
 c 8126.02 1547.266 8082.082 1562.871 8030.703 1562.871 c 7962.848 1562.871
 7910.828 1541.012 7874.633 1497.293 c 7838.438 1453.582 7820.34 1398.223
 7820.34 1331.219 c 7820.34 1316.313 l 7820.34 1249.605 7838.438 1194.313
 7874.633 1150.449 c 7910.828 1106.59 7962.848 1084.66 8030.703 1084.66 
c 8086.063 1084.66 8130.988 1100.777 8165.477 1132.992 c 8199.973 1165.215
 8216.645 1206.172 8215.516 1255.844 c 8214.664 1258.398 l 8120.555 1258.398
 l 8120.555 1233.133 8112.25 1211.707 8095.641 1194.098 c 8079.035 1176.496
 8057.383 1167.695 8030.703 1167.695 c 7991.805 1167.695 7964.273 1181.805
 7948.09 1210.016 c 7931.91 1238.227 7923.816 1273.59 7923.816 1316.113 
c 7923.816 1331 l 7923.816 1374.375 7931.91 1410.02 7948.09 1437.949 c 7964.273
 1465.875 7991.805 1479.836 8030.703 1479.836 c h
S Q
0.25 w
q 1 0 0 -1 0 5811.825195 cm
6230.332 1693.41 m 6204.781 1693.41 6183.77 1703.566 6167.309 1723.855 
c 6150.844 1744.156 6140.621 1769.922 6136.648 1801.148 c 6137.5 1803.277
 l 6320.184 1803.277 l 6320.184 1792.633 l 6320.184 1763.395 6312.73 1739.551
 6297.828 1721.09 c 6282.922 1702.637 6260.418 1693.41 6230.332 1693.41 
c h
6242.258 2088.586 m 6176.953 2088.586 6124.938 2067.23 6086.188 2024.5 
c 6047.438 1981.773 6028.063 1926.918 6028.063 1859.914 c 6028.063 1842.879
 l 6028.063 1775.883 6047.289 1720.309 6085.762 1676.164 c 6124.227 1632.023
 6172.418 1610.098 6230.332 1610.375 c 6292.504 1610.375 6340.129 1629.18
 6373.199 1666.797 c 6406.27 1704.418 6422.809 1754.879 6422.809 1818.18
 c 6422.809 1879.078 l 6135.371 1879.078 l 6134.52 1881.199 l 6136.223 1917.703
 6146.934 1947.547 6166.672 1970.75 c 6186.398 1993.953 6213.727 2005.551
 6248.645 2005.551 c 6276.465 2005.551 6300.313 2002.141 6320.184 1995.328
 c 6340.051 1988.516 6359.215 1978.723 6377.672 1965.945 c 6410.887 2033.801
 l 6393.57 2049.211 6370.574 2062.195 6341.902 2072.75 c 6313.223 2083.305
 6280.008 2088.586 6242.258 2088.586 c h
S Q
0.25 w
q 1 0 0 -1 0 5811.825195 cm
5562.906 1356.406 m 5588.172 1356.406 5609.469 1349.004 5626.781 1334.176
 c 5644.098 1319.352 5652.758 1300.789 5652.758 1278.477 c 5746.441 1278.477
 l 5747.297 1281.031 l 5748.715 1324.188 5731.176 1361.375 5694.703 1392.602
 c 5658.223 1423.836 5614.285 1439.441 5562.906 1439.441 c 5495.051 1439.441
 5443.035 1417.586 5406.84 1373.863 c 5370.645 1330.152 5352.547 1274.793
 5352.547 1207.789 c 5352.547 1192.887 l 5352.547 1126.176 5370.645 1070.883
 5406.84 1027.02 c 5443.035 983.16 5495.051 961.23 5562.906 961.23 c 5618.266
 961.23 5663.191 977.348 5697.684 1009.563 c 5732.176 1041.785 5748.852 
1082.742 5747.719 1132.418 c 5746.867 1134.969 l 5652.758 1134.969 l 5652.758
 1109.707 5644.453 1088.277 5627.848 1070.672 c 5611.238 1053.066 5589.586
 1044.266 5562.906 1044.266 c 5524.008 1044.266 5496.477 1058.375 5480.297
 1086.586 c 5464.113 1114.797 5456.023 1150.16 5456.023 1192.684 c 5456.023
 1207.57 l 5456.023 1250.945 5464.113 1286.594 5480.297 1314.52 c 5496.477
 1342.445 5524.008 1356.406 5562.906 1356.406 c h
S Q
0.25 w
q 1 0 0 -1 0 5811.825195 cm
5620.648 1470.316 m 5620.648 1582.32 l 5703.262 1582.32 l 5703.262 1658.969
 l 5620.648 1658.969 l 5620.648 1913.617 l 5620.648 1932.641 5624.762 1946.195
 5633 1954.285 c 5641.23 1962.375 5652.16 1966.422 5665.789 1966.422 c 5671.465
 1966.422 5677 1965.93 5682.395 1964.934 c 5687.785 1963.938 5692.895 1962.59
 5697.727 1960.887 c 5708.797 2036.684 l 5699.996 2041.516 5689.488 2045.266
 5677.285 2047.969 c 5665.078 2050.668 5652.438 2052.016 5639.387 2052.016
 c 5601.34 2052.016 5571.531 2040.879 5549.961 2018.586 c 5528.387 1996.301
 5517.598 1961.313 5517.598 1913.617 c 5517.598 1658.969 l 5447.336 1658.969
 l 5447.336 1582.32 l 5517.598 1582.32 l 5517.598 1470.316 l h
S Q
0.25 w
q 1 0 0 -1 0 5811.825195 cm
5335.473 2001.227 m 5231.996 2001.227 l 5231.996 1540.473 l 5335.473 1540.473
 l h
5335.473 1427.613 m 5231.996 1427.613 l 5231.996 1336.91 l 5335.473 1336.91
 l h
S Q
0.25 w
q 1 0 0 -1 0 5811.825195 cm
6789.57 1940.348 m 6797.234 1977.82 l 6799.793 1977.82 l 6807.883 1940.348
 l 6899.438 1635.449 l 7006.32 1635.449 l 6842.801 2096.203 l 6752.949 2096.203
 l 6588.574 1635.449 l 6695.461 1635.449 l h
S Q
0.25 w
q 1 0 0 -1 0 5811.825195 cm
7199.457 1684.109 m 7173.906 1684.109 7152.895 1694.266 7136.434 1714.559
 c 7119.969 1734.855 7109.75 1760.621 7105.773 1791.848 c 7106.625 1793.977
 l 7289.309 1793.977 l 7289.309 1783.332 l 7289.309 1754.094 7281.855 1730.25
 7266.953 1711.789 c 7252.047 1693.336 7229.543 1684.109 7199.457 1684.109
 c h
7211.383 2079.285 m 7146.082 2079.285 7094.063 2057.93 7055.313 2015.199
 c 7016.563 1972.473 6997.188 1917.617 6997.188 1850.613 c 6997.188 1833.578
 l 6997.188 1766.582 7016.414 1711.008 7054.887 1666.863 c 7093.355 1622.727
 7141.543 1600.797 7199.457 1601.074 c 7261.629 1601.074 7309.254 1619.879
 7342.324 1657.496 c 7375.395 1695.117 7391.934 1745.578 7391.934 1808.879
 c 7391.934 1869.777 l 7104.496 1869.777 l 7103.645 1871.898 l 7105.348 
1908.402 7116.059 1938.246 7135.797 1961.449 c 7155.527 1984.652 7182.852
 1996.25 7217.77 1996.25 c 7245.59 1996.25 7269.438 1992.84 7289.309 1986.027
 c 7309.176 1979.215 7328.336 1969.422 7346.797 1956.645 c 7380.012 2024.5
 l 7362.695 2039.91 7339.699 2052.898 7311.027 2063.449 c 7282.348 2074.004
 7249.133 2079.285 7211.383 2079.285 c h
S Q
0.25 w
q 1 0 0 -1 0 5811.825195 cm
7723.367 1855.965 m 7723.367 1808.91 7714.488 1770.426 7696.75 1740.512
 c 7679.008 1710.602 7652.527 1695.645 7617.332 1695.645 c 7595.758 1695.645
 7577.445 1700.258 7562.398 1709.465 c 7547.348 1718.68 7535.289 1731.508
 7526.203 1747.953 c 7526.203 1955.895 l 7535.289 1972.059 7547.348 1984.461
 7562.398 1993.109 c 7577.445 2001.762 7596.039 2006.078 7618.184 2006.078
 c 7653.379 2006.078 7679.719 1993.109 7697.176 1967.168 c 7714.637 1941.234
 7723.367 1907.137 7723.367 1864.898 c h
7826.418 1865.129 m 7826.418 1932.133 7810.66 1986.211 7779.148 2027.371
 c 7747.637 2068.535 7703.777 2089.117 7647.566 2089.117 c 7621.441 2089.117
 7598.313 2084.434 7578.156 2075.063 c 7557.992 2065.695 7540.684 2051.926
 7526.203 2033.758 c 7526.203 2257.32 l 7422.727 2257.32 l 7422.727 1619.422
 l 7510.023 1619.422 l 7520.242 1677.332 l 7535 1655.766 7552.816 1639.293
 7573.684 1627.938 c 7594.551 1616.586 7618.75 1610.902 7646.289 1610.902
 c 7703.066 1610.902 7747.277 1633.406 7778.938 1678.398 c 7810.59 1723.395
 7826.418 1782.664 7826.418 1856.184 c h
S Q
0.25 w
q 1 0 0 -1 0 5811.825195 cm
8007.586 1978.652 m 8033.703 1978.652 8057.195 1972.121 8078.063 1959.063
 c 8098.93 1946.008 8112.77 1931.105 8119.578 1914.352 c 8119.578 1846.215
 l 8037.395 1846.215 l 8007.301 1846.215 7983.738 1853.668 7966.703 1868.574
 c 7949.672 1883.477 7941.156 1901.004 7941.156 1921.164 c 7941.156 1938.77
 7946.902 1952.746 7958.402 1963.109 c 7969.898 1973.477 7986.293 1978.652
 8007.586 1978.652 c h
8134.484 2052.746 m 8130.793 2041.105 8127.734 2029.75 8125.328 2018.68
 c 8122.914 2007.609 8121.281 1996.535 8120.434 1985.461 c 8106.23 2007.039
 8087.57 2025.137 8064.438 2039.758 c 8041.293 2054.379 8015.395 2061.688
 7986.723 2061.688 c 7938.742 2061.688 7901.906 2049.34 7876.215 2024.641
 c 7850.52 1999.941 7837.68 1966.023 7837.68 1922.867 c 7837.68 1878.301
 7855.277 1843.598 7890.48 1818.75 c 7925.68 1793.91 7975.223 1781.488 8039.098
 1781.488 c 8119.578 1781.488 l 8119.578 1741.035 l 8119.578 1716.91 8112.484
 1698.027 8098.289 1684.398 c 8084.09 1670.773 8063.797 1663.957 8037.395
 1663.957 c 8013.824 1663.957 7995.09 1669.641 7981.184 1680.992 c 7967.273
 1692.348 7960.316 1706.965 7960.316 1724.852 c 7860.672 1724.852 l 7860.246
 1722.297 l 7858.262 1685.961 7874.512 1653.738 7909.004 1625.633 c 7943.496
 1597.527 7988.426 1583.477 8043.781 1583.477 c 8097.438 1583.477 8140.727
 1597.102 8173.66 1624.355 c 8206.594 1651.609 8223.059 1690.785 8223.059
 1741.883 c 8223.059 1946.715 l 8223.059 1965.734 8224.336 1983.973 8226.891
 2001.434 c 8229.445 2018.895 8233.559 2035.996 8239.238 2052.746 c h
S Q
0.25 w
q 1 0 0 -1 0 5811.825195 cm
6296.289 2354.25 m 6296.289 2307.195 6287.41 2268.711 6269.672 2238.797
 c 6251.93 2208.887 6225.453 2193.934 6190.254 2193.934 c 6168.68 2193.934
 6150.367 2198.543 6135.32 2207.75 c 6120.27 2216.965 6108.211 2229.793 
6099.125 2246.238 c 6099.125 2454.184 l 6108.211 2470.344 6120.27 2482.746
 6135.32 2491.395 c 6150.367 2500.047 6168.965 2504.363 6191.105 2504.363
 c 6226.305 2504.363 6252.641 2491.395 6270.098 2465.453 c 6287.559 2439.52
 6296.289 2405.422 6296.289 2363.184 c h
6399.34 2363.414 m 6399.34 2430.418 6383.586 2484.496 6352.07 2525.656 
c 6320.559 2566.82 6276.699 2587.402 6220.488 2587.402 c 6194.367 2587.402
 6171.23 2582.719 6151.074 2573.352 c 6130.914 2563.98 6113.602 2550.211
 6099.125 2532.043 c 6099.125 2755.605 l 5995.648 2755.605 l 5995.648 2117.707
 l 6082.945 2117.707 l 6093.164 2175.617 l 6107.922 2154.051 6125.738 2137.578
 6146.605 2126.223 c 6167.473 2114.871 6191.676 2109.191 6219.211 2109.191
 c 6275.988 2109.191 6320.199 2131.691 6351.859 2176.684 c 6383.512 2221.684
 6399.34 2280.949 6399.34 2354.469 c h
S Q
0.25 w
q 1 0 0 -1 0 5811.825195 cm
6606.711 2151.082 m 6581.16 2151.082 6560.145 2161.238 6543.688 2181.531
 c 6527.219 2201.828 6517 2227.594 6513.027 2258.82 c 6513.879 2260.949 
l 6696.563 2260.949 l 6696.563 2250.305 l 6696.563 2221.07 6689.109 2197.223
 6674.203 2178.762 c 6659.301 2160.309 6636.797 2151.082 6606.711 2151.082
 c h
6618.633 2546.258 m 6553.332 2546.258 6501.313 2524.902 6462.563 2482.172
 c 6423.813 2439.445 6404.438 2384.59 6404.438 2317.586 c 6404.438 2300.551
 l 6404.438 2233.555 6423.664 2177.984 6462.137 2133.836 c 6500.605 2089.699
 6548.797 2067.77 6606.711 2068.047 c 6668.883 2068.047 6716.504 2086.855
 6749.578 2124.469 c 6782.645 2162.09 6799.188 2212.551 6799.188 2275.855
 c 6799.188 2336.75 l 6511.746 2336.75 l 6510.895 2338.871 l 6512.598 2375.375
 6523.309 2405.219 6543.047 2428.422 c 6562.777 2451.625 6590.102 2463.223
 6625.02 2463.223 c 6652.84 2463.223 6676.688 2459.816 6696.563 2453 c 6716.426
 2446.188 6735.59 2436.395 6754.047 2423.617 c 6787.262 2491.473 l 6769.945
 2506.883 6746.949 2519.871 6718.277 2530.422 c 6689.598 2540.977 6656.383
 2546.258 6618.633 2546.258 c h
S Q
0.25 w
q 1 0 0 -1 0 5811.825195 cm
7103.035 2192.68 m 7058.746 2190.977 l 7038.586 2190.977 7021.766 2195.234
 7008.285 2203.75 c 6994.801 2212.266 6984.367 2224.336 6976.984 2239.945
 c 6976.984 2560.176 l 6873.508 2560.176 l 6873.508 2099.422 l 6968.043 
2099.422 l 6974.855 2166.277 l 6986.496 2142.715 7001.473 2124.266 7019.781
 2110.918 c 7038.094 2097.574 7059.172 2090.902 7083.02 2090.902 c 7089.258
 2090.902 7095.086 2091.398 7100.477 2092.395 c 7105.867 2093.395 7110.84
 2094.594 7115.383 2096.012 c h
S Q
0.25 w
q 1 0 0 -1 0 5811.825195 cm
7437.133 2557.238 m 7437.133 2509.266 7428.895 2470.516 7412.434 2440.984
 c 7395.969 2411.461 7369.852 2396.699 7334.078 2396.699 c 7311.086 2396.699
 7291.852 2401.809 7276.379 2412.027 c 7260.902 2422.246 7248.629 2436.449
 7239.543 2454.609 c 7239.543 2647.941 l 7248.34 2666.398 7260.551 2680.664
 7276.168 2690.738 c 7291.773 2700.816 7311.363 2705.855 7334.93 2705.855
 c 7370.703 2705.855 7396.676 2693.293 7412.859 2668.168 c 7429.043 2643.043
 7437.133 2609.051 7437.133 2566.18 c h
7540.613 2566.18 m 7540.613 2633.461 7524.918 2687.613 7493.555 2728.637
 c 7462.184 2769.664 7417.969 2790.168 7360.906 2790.168 c 7332.23 2790.168
 7307.32 2784.352 7286.172 2772.711 c 7265.023 2761.07 7247.352 2744.039
 7233.156 2721.609 c 7222.938 2781.227 l 7136.066 2781.227 l 7136.066 2116.926
 l 7239.543 2116.926 l 7239.543 2372.852 l 7253.738 2353.262 7270.773 2338.219
 7290.645 2327.711 c 7310.512 2317.215 7333.652 2311.957 7360.055 2311.957
 c 7417.684 2311.957 7462.184 2334.383 7493.555 2379.238 c 7524.918 2424.098
 7540.613 2483.426 7540.613 2557.238 c h
S Q
0.25 w
q 1 0 0 -1 0 5811.825195 cm
7769.988 2198.422 m 7744.434 2198.422 7723.422 2208.578 7706.965 2228.871
 c 7690.496 2249.168 7680.277 2274.934 7676.301 2306.16 c 7677.156 2308.289
 l 7859.84 2308.289 l 7859.84 2297.645 l 7859.84 2268.41 7852.383 2244.563
 7837.48 2226.102 c 7822.578 2207.648 7800.074 2198.422 7769.988 2198.422
 c h
7781.91 2593.598 m 7716.609 2593.598 7664.59 2572.242 7625.84 2529.512 
c 7587.09 2486.785 7567.715 2431.93 7567.715 2364.926 c 7567.715 2347.891
 l 7567.715 2280.895 7586.941 2225.324 7625.414 2181.176 c 7663.883 2137.039
 7712.074 2115.109 7769.988 2115.387 c 7832.16 2115.387 7879.781 2134.195
 7912.852 2171.809 c 7945.922 2209.43 7962.465 2259.891 7962.465 2323.195
 c 7962.465 2384.09 l 7675.027 2384.09 l 7674.172 2386.211 l 7675.879 2422.715
 7686.59 2452.559 7706.324 2475.762 c 7726.055 2498.965 7753.379 2510.563
 7788.297 2510.563 c 7816.117 2510.563 7839.965 2507.156 7859.84 2500.34
 c 7879.703 2493.527 7898.867 2483.734 7917.324 2470.957 c 7950.543 2538.813
 l 7933.223 2554.223 7910.227 2567.211 7881.555 2577.762 c 7852.879 2588.316
 7819.66 2593.598 7781.91 2593.598 c h
S Q
0.25 w
q 1 0 0 -1 0 5811.825195 cm
8312.711 1981.227 m 8312.711 1597.125 l 8242.445 1597.125 l 8242.445 1520.473
 l 8312.711 1520.473 l 8312.711 1466.816 l 8312.711 1416 8326.551 1376.824
 8354.23 1349.289 c 8381.91 1321.754 8420.727 1307.98 8470.695 1307.98 c
 8480.633 1307.98 8490.711 1308.766 8500.93 1310.324 c 8511.152 1311.883
 8522.648 1314.09 8535.426 1316.922 c 8524.777 1396.98 l 8519.094 1395.852
 8512.781 1394.852 8505.828 1394 c 8498.867 1393.148 8491.414 1392.723 8483.473
 1392.723 c 8461.043 1392.723 8444.223 1399.109 8433.012 1411.887 c 8421.789
 1424.66 8416.191 1442.973 8416.191 1466.816 c 8416.191 1520.473 l 8509.875
 1520.473 l 8509.875 1597.125 l 8416.191 1597.125 l 8416.191 1981.227 l 
h
S Q
0.25 w
q 1 0 0 -1 0 5811.825195 cm
8084.418 2326.746 m 8084.418 2371.535 8093.211 2408.109 8110.82 2436.461
 c 8128.133 2464.527 8155.387 2478.563 8192.578 2478.563 c 8228.629 2478.563
 8255.605 2464.527 8273.492 2436.461 c 8291.652 2408.109 8300.742 2371.535
 8300.742 2326.746 c 8300.742 2317.813 l 8300.742 2273.875 8291.652 2237.727
 8273.492 2209.375 c 8255.605 2180.742 8228.352 2166.422 8191.73 2166.422
 c 8155.676 2166.422 8128.703 2180.742 8110.82 2209.375 c 8093.211 2238.012
 8084.418 2274.152 8084.418 2317.813 c h
7980.941 2318.02 m 7980.941 2249.609 7999.68 2193.398 8037.152 2149.391
 c 8075.191 2105.387 8126.719 2083.387 8191.73 2083.387 c 8257.875 2083.387
 8309.688 2105.387 8347.16 2149.391 c 8384.91 2193.109 8403.797 2249.32 
8403.797 2318.02 c 8403.797 2326.965 l 8403.797 2396.234 8384.91 2452.734
 8347.16 2496.445 c 8309.688 2539.883 8258.16 2561.598 8192.578 2561.598
 c 8126.719 2561.598 8074.902 2539.738 8037.152 2496.02 c 7999.68 2452.309
 7980.941 2395.949 7980.941 2326.965 c h
S Q
0.25 w
q 1 0 0 -1 0 5811.825195 cm
5957.883 2477.73 m 5913.594 2476.027 l 5893.434 2476.027 5876.613 2480.289
 5863.137 2488.801 c 5849.652 2497.32 5839.219 2509.391 5831.836 2525 c 
5831.836 2845.227 l 5728.359 2845.227 l 5728.359 2384.473 l 5822.895 2384.473
 l 5829.707 2451.332 l 5841.344 2427.766 5856.32 2409.32 5874.633 2395.969
 c 5892.945 2382.629 5914.023 2375.957 5937.871 2375.957 c 5944.109 2375.957
 5949.934 2376.453 5955.328 2377.445 c 5960.719 2378.445 5965.691 2379.648
 5970.234 2381.066 c h
S Q
0.25 w
q 1 0 0 -1 0 5811.825195 cm
3390.582 541.113 m 3365.031 541.113 3344.02 551.27 3327.559 571.563 c 3311.094
 591.859 3300.875 617.625 3296.898 648.852 c 3297.75 650.98 l 3480.434 650.98
 l 3480.434 640.336 l 3480.434 611.102 3472.98 587.254 3458.078 568.793 
c 3443.172 550.34 3420.668 541.113 3390.582 541.113 c h
3402.504 936.289 m 3337.207 936.289 3285.188 914.934 3246.438 872.203 c
 3207.688 829.477 3188.313 774.621 3188.313 707.617 c 3188.313 690.582 l
 3188.313 623.586 3207.539 568.016 3246.012 523.867 c 3284.477 479.73 3332.668
 457.801 3390.582 458.078 c 3452.754 458.078 3500.379 476.887 3533.449 514.5
 c 3566.52 552.121 3583.063 602.582 3583.063 665.887 c 3583.063 726.781 
l 3295.621 726.781 l 3294.77 728.902 l 3296.473 765.406 3307.184 795.25 
3326.922 818.453 c 3346.648 841.656 3373.973 853.254 3408.895 853.254 c 
3436.715 853.254 3460.563 849.848 3480.434 843.031 c 3500.301 836.219 3519.465
 826.426 3537.922 813.648 c 3571.137 881.504 l 3553.816 896.914 3530.824
 909.902 3502.148 920.453 c 3473.473 931.008 3440.254 936.289 3402.504 936.289
 c h
S Q
0.25 w
q 1 0 0 -1 0 5811.825195 cm
4115.742 63.676 m 4115.742 175.672 l 4198.355 175.672 l 4198.355 252.32
 l 4115.742 252.32 l 4115.742 506.969 l 4115.742 525.992 4119.852 539.547
 4128.09 547.637 c 4136.324 555.727 4147.254 559.773 4160.879 559.773 c 
4166.559 559.773 4172.094 559.281 4177.488 558.285 c 4182.875 557.289 4187.988
 555.941 4192.82 554.238 c 4203.887 630.035 l 4195.09 634.867 4184.578 638.617
 4172.379 641.32 c 4160.172 644.02 4147.531 645.367 4134.48 645.367 c 4096.434
 645.367 4066.625 634.23 4045.055 611.938 c 4023.477 589.652 4012.691 554.664
 4012.691 506.969 c 4012.691 252.32 l 3942.426 252.32 l 3942.426 175.672
 l 4012.691 175.672 l 4012.691 63.676 l h
S Q
0.25 w
q 1 0 0 -1 0 5811.825195 cm
4127.473 972.297 m 4142.801 950.727 4161.469 933.969 4183.469 922.047 c
 4205.465 910.121 4229.813 904.16 4256.5 904.16 c 4305.324 904.16 4343.434
 919.563 4370.836 950.363 c 4398.23 981.172 4411.93 1028.652 4411.93 1092.805
 c 4411.93 1373.434 l 4308.449 1373.434 l 4308.449 1091.953 l 4308.449 1055.617
 4301.211 1029.355 4286.73 1013.176 c 4272.254 996.992 4250.539 988.902 
4221.578 988.902 c 4201.418 988.902 4183.32 993.098 4167.285 1001.465 c 
4151.246 1009.84 4137.969 1021.414 4127.473 1036.172 c 4127.473 1373.434
 l 4023.992 1373.434 l 4023.992 709.129 l 4127.473 709.129 l h
S Q
0.25 w
q 1 0 0 -1 0 5811.825195 cm
2254.676 198.469 m 2229.129 198.469 2208.113 208.625 2191.652 228.918 c
 2175.188 249.215 2164.969 274.98 2160.992 306.207 c 2161.844 308.336 l 
2344.527 308.336 l 2344.527 297.691 l 2344.527 268.457 2337.074 244.609 
2322.172 226.152 c 2307.266 207.699 2284.766 198.469 2254.676 198.469 c 
h
2266.598 593.648 m 2201.301 593.648 2149.281 572.289 2110.531 529.559 c
 2071.781 486.832 2052.402 431.977 2052.402 364.973 c 2052.402 347.941 l
 2052.402 280.941 2071.633 225.371 2110.105 181.223 c 2148.57 137.086 2196.766
 115.156 2254.676 115.434 c 2316.848 115.434 2364.469 134.242 2397.547 171.859
 c 2430.613 209.48 2447.152 259.941 2447.152 323.242 c 2447.152 384.137 
l 2159.715 384.137 l 2158.863 386.258 l 2160.566 422.762 2171.277 452.609
 2191.016 475.809 c 2210.746 499.012 2238.07 510.609 2272.988 510.609 c 
2300.809 510.609 2324.656 507.203 2344.527 500.387 c 2364.395 493.574 2383.555
 483.781 2402.016 471.004 c 2435.23 538.863 l 2417.914 554.27 2394.918 567.258
 2366.246 577.809 c 2337.566 588.367 2304.352 593.648 2266.598 593.648 c
 h
S Q
0.25 w
q 1 0 0 -1 0 5811.825195 cm
2908.629 2508.066 m 2805.152 2508.066 l 2805.152 2047.313 l 2908.629 2047.313
 l h
2908.629 1934.465 m 2805.152 1934.465 l 2805.152 1843.762 l 2908.629 1843.762
 l h
S Q
0.25 w
q 1 0 0 -1 0 5811.825195 cm
4087.281 2947.883 m 4093.246 3014.316 l 4108.293 2990.75 4127.242 2972.367
 4150.094 2959.168 c 4172.941 2945.965 4198.703 2939.367 4227.383 2939.367
 c 4275.355 2939.367 4312.762 2953.914 4339.59 2983.016 c 4366.418 3012.121
 4379.832 3057.469 4379.832 3119.07 c 4379.832 3408.637 l 4276.355 3408.637
 l 4276.355 3119.922 l 4276.355 3085.285 4269.18 3060.664 4254.848 3046.039
 c 4240.512 3031.418 4218.719 3024.109 4189.484 3024.109 c 4169.32 3024.109
 4151.301 3028.578 4135.402 3037.523 c 4119.5 3046.465 4106.445 3058.75 
4096.227 3074.359 c 4096.227 3408.637 l 3992.746 3408.637 l 3992.746 2947.883
 l h
S Q
0.25 w
q 1 0 0 -1 0 5811.825195 cm
4124.762 3781.73 m 4124.762 3765.832 4117.949 3752.629 4104.32 3742.125
 c 4090.695 3731.629 4065.285 3722.395 4028.098 3714.445 c 3973.016 3702.809
 3931.363 3686.277 3903.117 3664.836 c 3874.863 3643.402 3860.742 3614.234
 3860.742 3577.328 c 3860.742 3538.723 3877.066 3505.789 3909.715 3478.535
 c 3942.355 3451.281 3985.367 3437.652 4038.742 3437.652 c 4094.953 3437.652
 4139.594 3451.492 4172.668 3479.172 c 4205.734 3506.852 4221.57 3541.133
 4220.148 3582.012 c 4219.297 3584.566 l 4120.078 3584.566 l 4120.078 3565.551
 4112.84 3549.223 4098.359 3535.594 c 4083.883 3521.969 4064.008 3515.156
 4038.742 3515.156 c 4013.762 3515.156 3994.734 3520.762 3981.68 3531.977
 c 3968.621 3543.195 3962.094 3556.887 3962.094 3573.07 c 3962.094 3589.25
 3968.266 3602.098 3980.617 3611.605 c 3992.965 3621.125 4018.02 3629.563
 4055.777 3636.945 c 4113.691 3648.867 4156.629 3665.688 4184.59 3687.406
 c 4212.551 3709.125 4226.535 3738.719 4226.535 3776.191 c 4226.535 3817.648
 4209.434 3851.289 4175.223 3877.117 c 4141.008 3902.949 4095.949 3915.867
 4040.02 3915.867 c 3980.121 3915.867 3932.852 3900.535 3898.219 3869.875
 c 3863.578 3839.215 3847.117 3804.02 3848.82 3764.27 c 3849.672 3761.715
 l 3945.91 3761.715 l 3947.039 3788.398 3956.699 3807.852 3974.867 3820.055
 c 3993.031 3832.262 4015.176 3838.363 4041.297 3838.363 c 4067.977 3838.363
 4088.566 3833.254 4103.043 3823.035 c 4117.523 3812.816 4124.762 3799.047
 4124.762 3781.73 c h
S Q
0.25 w
q 1 0 0 -1 0 5811.825195 cm
4457.113 3434.746 m 4457.113 3546.742 l 4539.727 3546.742 l 4539.727 3623.391
 l 4457.113 3623.391 l 4457.113 3878.039 l 4457.113 3897.063 4461.223 3910.617
 4469.465 3918.707 c 4477.695 3926.797 4488.629 3930.844 4502.254 3930.844
 c 4507.93 3930.844 4513.469 3930.352 4518.859 3929.355 c 4524.25 3928.359
 4529.359 3927.012 4534.191 3925.309 c 4545.262 4001.105 l 4536.461 4005.938
 4525.953 4009.688 4513.75 4012.391 c 4501.543 4015.09 4488.902 4016.438
 4475.852 4016.438 c 4437.805 4016.438 4407.996 4005.301 4386.426 3983.008
 c 4364.848 3960.727 4354.063 3925.734 4354.063 3878.039 c 4354.063 3623.391
 l 4283.801 3623.391 l 4283.801 3546.742 l 4354.063 3546.742 l 4354.063 
3434.746 l h
S Q
0.25 w
q 1 0 0 -1 0 5811.825195 cm
2244.883 3384.828 m 2271 3384.828 2294.492 3378.301 2315.359 3365.242 c
 2336.227 3352.184 2350.066 3337.281 2356.879 3320.527 c 2356.879 3252.391
 l 2274.695 3252.391 l 2244.602 3252.391 2221.035 3259.848 2204.004 3274.75
 c 2186.969 3289.656 2178.453 3307.184 2178.453 3327.34 c 2178.453 3344.949
 2184.203 3358.926 2195.699 3369.285 c 2207.195 3379.652 2223.59 3384.828
 2244.883 3384.828 c h
2371.781 3458.926 m 2368.094 3447.285 2365.035 3435.93 2362.629 3424.855
 c 2360.215 3413.785 2358.582 3402.715 2357.73 3391.641 c 2343.531 3413.219
 2324.871 3431.316 2301.734 3445.934 c 2278.59 3460.555 2252.691 3467.867
 2224.02 3467.867 c 2176.039 3467.867 2139.207 3455.516 2113.512 3430.82
 c 2087.816 3406.121 2074.977 3372.203 2074.977 3329.043 c 2074.977 3284.48
 2092.578 3249.773 2127.781 3224.926 c 2162.977 3200.086 2212.52 3187.668
 2276.395 3187.668 c 2356.879 3187.668 l 2356.879 3147.211 l 2356.879 3123.086
 2349.781 3104.203 2335.586 3090.578 c 2321.387 3076.949 2301.094 3070.137
 2274.695 3070.137 c 2251.125 3070.137 2232.387 3075.82 2218.48 3087.168
 c 2204.57 3098.527 2197.617 3113.145 2197.617 3131.031 c 2097.969 3131.031
 l 2097.543 3128.473 l 2095.559 3092.137 2111.809 3059.918 2146.301 3031.813
 c 2180.797 3003.707 2225.723 2989.652 2281.078 2989.652 c 2334.738 2989.652
 2378.023 3003.281 2410.961 3030.535 c 2443.891 3057.789 2460.359 3096.965
 2460.359 3148.063 c 2460.359 3352.891 l 2460.359 3371.91 2461.633 3390.152
 2464.188 3407.609 c 2466.742 3425.07 2470.855 3442.176 2476.539 3458.926
 c h
S Q
0.25 w
q 1 0 0 -1 0 5811.825195 cm
2904.902 3178.617 103.477 664.309 re S Q
0.25 w
q 1 0 0 -1 0 5811.825195 cm
3131.02 3178.617 103.48 664.309 re S Q
0.25 w
q 1 0 0 -1 0 5811.825195 cm
3034.359 4280.828 m 3060.477 4280.828 3083.969 4274.301 3104.836 4261.242
 c 3125.699 4248.184 3139.539 4233.281 3146.355 4216.527 c 3146.355 4148.391
 l 3064.168 4148.391 l 3034.074 4148.391 3010.512 4155.848 2993.48 4170.75
 c 2976.445 4185.656 2967.93 4203.184 2967.93 4223.34 c 2967.93 4240.949
 2973.676 4254.926 2985.176 4265.285 c 2996.672 4275.652 3013.066 4280.828
 3034.359 4280.828 c h
3161.258 4354.926 m 3157.566 4343.285 3154.512 4331.93 3152.102 4320.855
 c 3149.691 4309.785 3148.059 4298.715 3147.207 4287.641 c 3133.004 4309.219
 3114.344 4327.316 3091.207 4341.934 c 3068.066 4356.555 3042.168 4363.867
 3013.492 4363.867 c 2965.516 4363.867 2928.68 4351.516 2902.988 4326.82
 c 2877.289 4302.121 2864.449 4268.203 2864.449 4225.043 c 2864.449 4180.48
 2882.051 4145.773 2917.254 4120.926 c 2952.449 4096.086 3001.996 4083.668
 3065.871 4083.668 c 3146.355 4083.668 l 3146.355 4043.211 l 3146.355 4019.086
 3139.258 4000.203 3125.063 3986.578 c 3110.863 3972.949 3090.57 3966.137
 3064.168 3966.137 c 3040.598 3966.137 3021.863 3971.82 3007.957 3983.168
 c 2994.047 3994.527 2987.09 4009.145 2987.09 4027.031 c 2887.445 4027.031
 l 2887.02 4024.473 l 2885.031 3988.137 2901.285 3955.918 2935.777 3927.813
 c 2970.27 3899.707 3015.195 3885.652 3070.555 3885.652 c 3124.211 3885.652
 3167.496 3899.281 3200.434 3926.535 c 3233.367 3953.789 3249.832 3992.965
 3249.832 4044.063 c 3249.832 4248.891 l 3249.832 4267.91 3251.109 4286.152
 3253.664 4303.609 c 3256.219 4321.07 3260.328 4338.176 3266.016 4354.926
 c h
S Q
0.25 w
q 1 0 0 -1 0 5811.825195 cm
2947.594 4403.887 m 2947.594 4515.883 l 3030.207 4515.883 l 3030.207 4592.535
 l 2947.594 4592.535 l 2947.594 4847.184 l 2947.594 4866.203 2951.707 4879.758
 2959.945 4887.852 c 2968.176 4895.941 2979.105 4899.988 2992.734 4899.988
 c 2998.41 4899.988 3003.945 4899.496 3009.34 4898.496 c 3014.727 4897.504
 3019.84 4896.156 3024.672 4894.449 c 3035.742 4970.25 l 3026.941 4975.082
 3016.434 4978.832 3004.23 4981.535 c 2992.023 4984.234 2979.383 4985.578
 2966.332 4985.578 c 2928.285 4985.578 2898.477 4974.445 2876.906 4952.152
 c 2855.332 4929.867 2844.543 4894.875 2844.543 4847.184 c 2844.543 4592.535
 l 2774.281 4592.535 l 2774.281 4515.883 l 2844.543 4515.883 l 2844.543 
4403.887 l h
S Q
0.25 w
q 1 0 0 -1 0 5811.825195 cm
3186.766 5086.352 m 3083.285 5086.352 l 3083.285 4625.598 l 3186.766 4625.598
 l h
3186.766 4512.75 m 3083.285 4512.75 l 3083.285 4422.047 l 3186.766 4422.047
 l h
S Q
0.25 w
q 1 0 0 -1 0 5811.825195 cm
3322.906 4814.727 m 3322.906 4859.516 3331.703 4896.09 3349.309 4924.445
 c 3366.621 4952.508 3393.875 4966.543 3431.07 4966.543 c 3467.113 4966.543
 3494.094 4952.508 3511.977 4924.445 c 3530.141 4896.09 3539.23 4859.516
 3539.23 4814.727 c 3539.23 4805.793 l 3539.23 4761.855 3530.141 4725.707
 3511.977 4697.355 c 3494.094 4668.723 3466.84 4654.406 3430.219 4654.406
 c 3394.164 4654.406 3367.195 4668.723 3349.309 4697.355 c 3331.703 4725.992
 3322.906 4762.133 3322.906 4805.793 c h
3219.43 4806 m 3219.43 4737.59 3238.164 4681.379 3275.641 4637.371 c 3313.68
 4593.371 3365.207 4571.367 3430.219 4571.367 c 3496.363 4571.367 3548.172
 4593.371 3585.648 4637.371 c 3623.398 4681.09 3642.281 4737.301 3642.281
 4806 c 3642.281 4814.945 l 3642.281 4884.215 3623.398 4940.715 3585.648
 4984.426 c 3548.172 5027.863 3496.648 5049.582 3431.07 5049.582 c 3365.207
 5049.582 3313.391 5027.719 3275.641 4984 c 3238.164 4940.289 3219.43 4883.93
 3219.43 4814.945 c h
S Q
0.25 w
q 1 0 0 -1 0 5811.825195 cm
3826.246 4579.883 m 3832.207 4646.316 l 3847.254 4622.75 3866.203 4604.367
 3889.059 4591.168 c 3911.902 4577.965 3937.664 4571.367 3966.344 4571.367
 c 4014.316 4571.367 4051.723 4585.914 4078.551 4615.016 c 4105.379 4644.121
 4118.797 4689.469 4118.797 4751.07 c 4118.797 5040.637 l 4015.316 5040.637
 l 4015.316 4751.922 l 4015.316 4717.285 4008.141 4692.664 3993.809 4678.039
 c 3979.473 4663.418 3957.68 4656.109 3928.445 4656.109 c 3908.281 4656.109
 3890.262 4660.578 3874.363 4669.523 c 3858.461 4678.465 3845.406 4690.75
 3835.188 4706.359 c 3835.188 5040.637 l 3731.707 5040.637 l 3731.707 4579.883
 l h
S Q
0.25 w
q 1 0 0 -1 0 5811.825195 cm
8386.238 674.887 m 8386.238 786.891 l 8468.848 786.891 l 8468.848 863.539
 l 8386.238 863.539 l 8386.238 1118.191 l 8386.238 1137.211 8390.348 1150.766
 8398.586 1158.859 c 8406.82 1166.949 8417.75 1170.992 8431.375 1170.992
 c 8437.055 1170.992 8442.59 1170.5 8447.984 1169.504 c 8453.371 1168.512
 8458.48 1167.16 8463.313 1165.457 c 8474.387 1241.258 l 8465.586 1246.09
 8455.074 1249.84 8442.875 1252.539 c 8430.668 1255.238 8418.027 1256.586
 8404.973 1256.586 c 8366.926 1256.586 8337.117 1245.449 8315.547 1223.156
 c 8293.973 1200.871 8283.184 1165.883 8283.184 1118.191 c 8283.184 863.539
 l 8212.922 863.539 l 8212.922 786.891 l 8283.184 786.891 l 8283.184 674.887
 l h
S Q
0 g
0.8 w
[ 0.8 1.6] 0 d
4 M q 1 0 0 -1 0 5811.825195 cm
0.391 0.406 8645.672 5811.023 re S Q
[ 0.8 1.6] 0 d
q 1 0 0 -1 0 5811.825195 cm
26.25 38.008 4535.434 2833.844 re S Q
[ 0.8 1.6] 0 d
q 1 0 0 -1 0 5811.825195 cm
21.277 2915.016 4535.43 2833.848 re S Q
[ 0.8 1.6] 0 d
q 1 0 0 -1 0 5811.825195 cm
4585.551 2902.086 3968.504 2833.848 re S Q
[ 0.8 1.6] 0 d
q 1 0 0 -1 0 5811.825195 cm
4584.555 31.637 3968.504 2833.848 re S Q
Q Q
showpage
%%Trailer
%%EOF
