M48
;DRILL file {KiCad (2015-07-20 BZR 5967)-product} date mié 22 jul 2015 11:27:29 CEST
;FORMAT={-:-/ absolute / inch / decimal}
FMAT,2
INCH,TZ
T1C0.028
T2C0.028
T3C0.032
T4C0.036
T5C0.040
T6C0.047
T7C0.050
T8C0.055
T9C0.059
T10C0.106
%
G90
G05
M72
T1
X0.97Y-4.17
X1.02Y-5.13
X1.21Y-5.13
X1.23Y-4.17
X1.57Y-2.82
X1.57Y-3.03
X1.64Y-3.21
X1.64Y-3.45
X1.75Y-3.84
X1.75Y-4.03
X1.82Y-3.
X1.82Y-3.45
X1.82Y-3.91
X1.82Y-4.04
X1.93Y-3.97
X1.93Y-4.04
X1.93Y-4.11
X1.94Y-4.18
X2.11Y-3.97
X2.11Y-4.04
X2.11Y-4.11
X2.11Y-4.18
X2.3Y-3.02
X2.3Y-3.45
X3.21Y-4.24
X3.36Y-4.24
X4.46Y-3.49
X4.67Y-3.49
T2
X2.37Y-2.8901
X2.37Y-4.6199
X2.77Y-2.8901
X2.77Y-4.6199
X3.46Y-4.6199
X3.47Y-2.9001
X3.86Y-4.6199
X3.87Y-2.9001
X4.55Y-2.9101
X4.57Y-4.6199
X4.95Y-2.9101
X4.97Y-4.6199
X5.65Y-2.9101
X5.66Y-4.6199
X6.05Y-2.9101
X6.06Y-4.6199
X6.73Y-2.9201
X6.74Y-4.6299
X7.13Y-2.9201
X7.14Y-4.6299
X7.5599Y-2.61
X7.5599Y-3.01
X7.5599Y-3.73
X7.5599Y-4.13
X7.5699Y-4.83
X7.5699Y-5.23
T3
X1.92Y-3.2
X1.94Y-4.36
X2.22Y-3.2
X2.24Y-4.36
X3.06Y-3.2
X3.12Y-4.36
X3.36Y-3.2
X3.42Y-4.36
X4.18Y-3.2
X4.18Y-4.37
X4.48Y-3.2
X4.48Y-4.37
X5.28Y-3.2
X5.29Y-4.36
X5.58Y-3.2
X5.59Y-4.36
X6.34Y-4.36
X6.38Y-3.2
X6.64Y-4.36
X6.68Y-3.2
X7.11Y-3.75
X7.11Y-4.05
X7.33Y-4.76
X7.33Y-5.06
X7.46Y-3.55
X7.76Y-3.55
T4
X1.39Y-3.47
X1.39Y-3.57
X1.39Y-3.67
X1.39Y-3.77
X1.39Y-3.87
X1.39Y-3.97
X1.39Y-4.07
X1.39Y-4.17
X1.39Y-4.27
X1.39Y-4.37
X1.39Y-4.47
X1.39Y-4.57
X1.39Y-4.67
X1.39Y-4.77
X1.39Y-4.87
X1.39Y-4.97
X1.39Y-5.07
X1.39Y-5.17
X1.39Y-5.27
X1.39Y-5.37
X1.49Y-3.47
X1.49Y-3.57
X1.49Y-3.67
X1.49Y-3.77
X1.49Y-3.87
X1.49Y-3.97
X1.49Y-4.07
X1.49Y-4.17
X1.49Y-4.27
X1.49Y-4.37
X1.49Y-4.47
X1.49Y-4.57
X1.49Y-4.67
X1.49Y-4.77
X1.49Y-4.87
X1.49Y-4.97
X1.49Y-5.07
X1.49Y-5.17
X1.49Y-5.27
X1.49Y-5.37
T6
X1.62Y-1.82
X1.62Y-2.54
X1.8169Y-1.82
X1.8169Y-2.54
T7
X2.42Y-4.8
X2.42Y-5.3
X2.43Y-2.12
X2.43Y-2.72
X2.72Y-4.8
X2.72Y-5.4
X2.73Y-2.22
X2.73Y-2.72
X3.52Y-2.12
X3.52Y-2.72
X3.52Y-4.8
X3.52Y-5.3
X3.82Y-2.22
X3.82Y-2.72
X3.82Y-4.8
X3.82Y-5.4
X4.6Y-4.8
X4.6Y-5.3
X4.61Y-2.12
X4.61Y-2.72
X4.9Y-4.8
X4.9Y-5.4
X4.91Y-2.22
X4.91Y-2.72
X5.7Y-2.12
X5.7Y-2.72
X5.7Y-4.8
X5.7Y-5.3
X6.Y-2.22
X6.Y-2.72
X6.Y-4.8
X6.Y-5.4
X6.78Y-4.8
X6.78Y-5.3
X6.79Y-2.12
X6.79Y-2.72
X7.08Y-4.8
X7.08Y-5.4
X7.09Y-2.22
X7.09Y-2.72
X7.71Y-2.67
X7.71Y-2.97
X7.71Y-3.79
X7.71Y-4.09
X7.71Y-4.89
X7.71Y-5.19
X8.21Y-2.97
X8.21Y-4.09
X8.21Y-5.19
X8.31Y-2.67
X8.31Y-3.79
X8.31Y-4.89
T8
X2.4298Y-3.2
X2.4798Y-4.36
X2.52Y-3.2
X2.57Y-4.36
X2.6102Y-3.2
X2.6602Y-4.36
X3.5498Y-3.2
X3.5898Y-4.36
X3.64Y-3.2
X3.68Y-4.36
X3.7302Y-3.2
X3.7702Y-4.36
X4.6598Y-3.2
X4.6598Y-4.36
X4.75Y-3.2
X4.75Y-4.36
X4.8402Y-3.2
X4.8402Y-4.36
X5.7598Y-3.2
X5.7598Y-4.36
X5.85Y-3.2
X5.85Y-4.36
X5.9402Y-3.2
X5.9402Y-4.36
X6.8398Y-4.36
X6.8498Y-3.2
X6.93Y-4.36
X6.94Y-3.2
X7.0202Y-4.36
X7.0302Y-3.2
X7.34Y-3.8198
X7.34Y-3.91
X7.34Y-4.0002
X7.42Y-5.1498
X7.42Y-5.24
X7.42Y-5.3302
X7.5298Y-3.32
X7.62Y-3.32
X7.7102Y-3.32
T9
X2.1763Y-5.78
X2.1813Y-1.699
X2.3731Y-5.78
X2.3781Y-1.699
X2.57Y-5.78
X2.575Y-1.699
X2.7669Y-5.78
X2.7719Y-1.699
X2.9637Y-5.78
X2.9687Y-1.699
X3.2763Y-1.7
X3.2763Y-5.78
X3.4731Y-1.7
X3.4731Y-5.78
X3.67Y-1.7
X3.67Y-5.78
X3.8669Y-1.7
X3.8669Y-5.78
X4.0637Y-1.7
X4.0637Y-5.78
X4.3563Y-5.78
X4.3663Y-1.7
X4.5531Y-5.78
X4.5631Y-1.7
X4.75Y-5.78
X4.76Y-1.7
X4.9469Y-5.78
X4.9569Y-1.7
X5.1437Y-5.78
X5.1537Y-1.7
X5.4563Y-1.7
X5.4563Y-5.78
X5.6531Y-1.7
X5.6531Y-5.78
X5.85Y-1.7
X5.85Y-5.78
X6.0469Y-1.7
X6.0469Y-5.78
X6.2437Y-1.7
X6.2437Y-5.78
X6.5363Y-5.78
X6.5463Y-1.7
X6.7331Y-5.78
X6.7431Y-1.7
X6.93Y-5.78
X6.94Y-1.7
X7.1269Y-5.78
X7.1369Y-1.7
X7.3237Y-5.78
X7.3337Y-1.7
X8.69Y-2.4263
X8.69Y-2.6231
X8.69Y-2.82
X8.69Y-3.0169
X8.69Y-3.2137
X8.69Y-3.5463
X8.69Y-3.7431
X8.69Y-3.94
X8.69Y-4.1369
X8.69Y-4.3337
X8.69Y-4.6463
X8.69Y-4.8431
X8.69Y-5.04
X8.69Y-5.2369
X8.69Y-5.4337
T10
X1.43Y-3.12
X1.43Y-5.72
T5
X1.117Y-2.14G85X1.117Y-2.2
G05
X1.177Y-2.37G85X1.237Y-2.37
G05
X1.357Y-2.14G85X1.357Y-2.2
G05
T0
M30
