EESchema Schematic File Version 2
LIBS:power
LIBS:device
LIBS:transistors
LIBS:conn
LIBS:linear
LIBS:regul
LIBS:74xx
LIBS:cmos4000
LIBS:adc-dac
LIBS:memory
LIBS:xilinx
LIBS:special
LIBS:microcontrollers
LIBS:dsp
LIBS:microchip
LIBS:analog_switches
LIBS:motorola
LIBS:texas
LIBS:intel
LIBS:audio
LIBS:interface
LIBS:digital-audio
LIBS:philips
LIBS:display
LIBS:cypress
LIBS:siliconi
LIBS:opto
LIBS:atmel
LIBS:contrib
LIBS:valves
LIBS:PCBDKV2015-cache
EELAYER 27 0
EELAYER END
$Descr A4 11693 8268
encoding utf-8
Sheet 1 1
Title ""
Date "13 may 2015"
Rev ""
Comp ""
Comment1 ""
Comment2 ""
Comment3 ""
Comment4 ""
$EndDescr
$Comp
L CONN_02X20 P2
U 1 1 5550892E
P 1500 3700
F 0 "P2" H 1500 4750 50  0000 C CNN
F 1 "RPI-GPIO" V 1500 3700 50  0000 C CNN
F 2 "Connect:HE10_40D" H 1500 2750 60  0001 C CNN
F 3 "" H 1500 2750 60  0000 C CNN
	1    1500 3700
	1    0    0    -1  
$EndComp
$Comp
L R R1
U 1 1 555089A8
P 3150 2000
F 0 "R1" V 3230 2000 40  0000 C CNN
F 1 "220" V 3157 2001 40  0000 C CNN
F 2 "Discret:R3" V 3080 2000 30  0001 C CNN
F 3 "" H 3150 2000 30  0000 C CNN
	1    3150 2000
	0    1    1    0   
$EndComp
$Comp
L BD135 Q1
U 1 1 55508A4E
P 3700 2000
F 0 "Q1" H 3700 1850 40  0000 R CNN
F 1 "BD135" H 3700 2150 40  0000 R CNN
F 2 "Housings_SOT:SOT126_SOT32_Housing_Vertical_BigPads" H 3580 2100 29  0001 C CNN
F 3 "" H 3700 2000 60  0000 C CNN
	1    3700 2000
	1    0    0    -1  
$EndComp
Wire Wire Line
	3400 2000 3500 2000
$Comp
L +12V #PWR01
U 1 1 55508B8B
P 3800 1300
F 0 "#PWR01" H 3800 1250 20  0001 C CNN
F 1 "+12V" H 3800 1400 30  0000 C CNN
F 2 "" H 3800 1300 60  0000 C CNN
F 3 "" H 3800 1300 60  0000 C CNN
	1    3800 1300
	1    0    0    -1  
$EndComp
$Comp
L RELAY_OJE-SS-112LM RL1
U 1 1 55508D3A
P 4150 1500
F 0 "RL1" H 4250 1225 60  0000 C CNN
F 1 "RELAY_OJE-SS-112LM" H 4250 1700 40  0000 C CNN
F 2 "" H 4150 1500 60  0001 C CNN
F 3 "" H 4150 1500 60  0000 C CNN
	1    4150 1500
	1    0    0    -1  
$EndComp
Wire Wire Line
	3800 1650 3800 1750
Wire Wire Line
	3800 1750 3800 1800
Wire Wire Line
	3800 1650 3850 1650
Wire Wire Line
	3800 1300 3800 1350
Wire Wire Line
	3800 1350 3800 1400
Wire Wire Line
	3800 1400 3850 1400
$Comp
L DIODE D1
U 1 1 55508F31
P 3700 1550
F 0 "D1" H 3700 1650 40  0000 C CNN
F 1 "1N4007" H 3700 1450 40  0000 C CNN
F 2 "Diodes_ThroughHole:Diode_DO-35_SOD27_Horizontal_RM10" H 3700 1550 60  0001 C CNN
F 3 "" H 3700 1550 60  0000 C CNN
	1    3700 1550
	0    -1   -1   0   
$EndComp
Wire Wire Line
	3700 1750 3800 1750
Connection ~ 3800 1750
Wire Wire Line
	3700 1350 3800 1350
Connection ~ 3800 1350
$Comp
L GND #PWR02
U 1 1 555090BD
P 3800 2300
F 0 "#PWR02" H 3800 2300 30  0001 C CNN
F 1 "GND" H 3800 2230 30  0001 C CNN
F 2 "" H 3800 2300 60  0000 C CNN
F 3 "" H 3800 2300 60  0000 C CNN
	1    3800 2300
	1    0    0    -1  
$EndComp
Wire Wire Line
	3800 2200 3800 2300
$Comp
L CONN_01X05 P3
U 1 1 55509122
P 5200 1600
F 0 "P3" H 5200 1900 50  0000 C CNN
F 1 "GROUP1" V 5300 1600 50  0000 C CNN
F 2 "fabLAB:MC000029" H 5200 1600 60  0001 C CNN
F 3 "" H 5200 1600 60  0000 C CNN
	1    5200 1600
	1    0    0    -1  
$EndComp
Wire Wire Line
	5000 1400 4600 1400
Wire Wire Line
	4900 1650 4600 1650
Wire Wire Line
	4900 1500 4900 1600
Wire Wire Line
	4900 1600 4900 1650
Wire Wire Line
	4900 1650 4900 1700
Wire Wire Line
	4900 1700 4900 1800
Wire Wire Line
	4900 1500 5000 1500
Wire Wire Line
	5000 1600 4900 1600
Connection ~ 4900 1600
Wire Wire Line
	4900 1700 5000 1700
Connection ~ 4900 1650
Wire Wire Line
	4900 1800 5000 1800
Connection ~ 4900 1700
$Comp
L GND #PWR03
U 1 1 555092CD
P 900 4850
F 0 "#PWR03" H 900 4850 30  0001 C CNN
F 1 "GND" H 900 4780 30  0001 C CNN
F 2 "" H 900 4850 60  0000 C CNN
F 3 "" H 900 4850 60  0000 C CNN
	1    900  4850
	1    0    0    -1  
$EndComp
$Comp
L GND #PWR04
U 1 1 555092DE
P 2000 4850
F 0 "#PWR04" H 2000 4850 30  0001 C CNN
F 1 "GND" H 2000 4780 30  0001 C CNN
F 2 "" H 2000 4850 60  0000 C CNN
F 3 "" H 2000 4850 60  0000 C CNN
	1    2000 4850
	1    0    0    -1  
$EndComp
Wire Wire Line
	1250 3150 900  3150
Wire Wire Line
	900  3150 900  3950
Wire Wire Line
	900  3950 900  4700
Wire Wire Line
	900  4700 900  4850
Wire Wire Line
	1250 3950 900  3950
Connection ~ 900  3950
Wire Wire Line
	1250 4650 900  4650
Wire Wire Line
	900  4650 900  4700
Connection ~ 900  4700
Wire Wire Line
	1750 2950 2000 2950
Wire Wire Line
	2000 2950 2000 3350
Wire Wire Line
	2000 3350 2000 3650
Wire Wire Line
	2000 3650 2000 4150
Wire Wire Line
	2000 4150 2000 4350
Wire Wire Line
	2000 4350 2000 4850
Wire Wire Line
	1750 3350 2000 3350
Connection ~ 2000 3350
Wire Wire Line
	1750 3650 2000 3650
Connection ~ 2000 3650
Wire Wire Line
	1750 4150 2000 4150
Connection ~ 2000 4150
Wire Wire Line
	1750 4350 2000 4350
Connection ~ 2000 4350
Text GLabel 800  4150 0    39   Output ~ 0
GPIO5
Text GLabel 800  4250 0    39   Output ~ 0
GPIO6
Wire Wire Line
	1250 4150 800  4150
Wire Wire Line
	1250 4250 800  4250
Text GLabel 2100 4250 2    39   Output ~ 0
GPIO12
Wire Wire Line
	1750 4250 2100 4250
Text GLabel 800  4350 0    39   Output ~ 0
GPIO13
Wire Wire Line
	800  4350 1250 4350
Text GLabel 2100 4450 2    39   Output ~ 0
GPIO16
Wire Wire Line
	1750 4450 2100 4450
Text GLabel 800  3250 0    39   Output ~ 0
GPIO17
Wire Wire Line
	800  3250 1250 3250
Text GLabel 2100 3250 2    39   Output ~ 0
GPIO18
Wire Wire Line
	2100 3250 1750 3250
Text GLabel 800  4450 0    39   Output ~ 0
GPIO19
Wire Wire Line
	800  4450 1250 4450
Text GLabel 800  4550 0    39   Output ~ 0
GPIO20
Wire Wire Line
	800  4550 1250 4550
Text GLabel 2100 4650 2    39   Output ~ 0
GPIO21
Wire Wire Line
	1750 4650 2100 4650
Text GLabel 800  3450 0    39   Output ~ 0
GPIO22
Wire Wire Line
	800  3450 1250 3450
Text GLabel 2100 3450 2    39   Output ~ 0
GPIO23
Wire Wire Line
	1750 3450 2100 3450
Text GLabel 2100 3550 2    39   Output ~ 0
GPIO24
Wire Wire Line
	1750 3550 2100 3550
$Comp
L R R2
U 1 1 55509DE4
P 3150 3200
F 0 "R2" V 3230 3200 40  0000 C CNN
F 1 "220" V 3157 3201 40  0000 C CNN
F 2 "Discret:R3" V 3080 3200 30  0001 C CNN
F 3 "" H 3150 3200 30  0000 C CNN
	1    3150 3200
	0    1    1    0   
$EndComp
$Comp
L BD135 Q2
U 1 1 55509DEA
P 3700 3200
F 0 "Q2" H 3700 3050 40  0000 R CNN
F 1 "BD135" H 3700 3350 40  0000 R CNN
F 2 "Housings_SOT:SOT126_SOT32_Housing_Vertical_BigPads" H 3580 3300 29  0001 C CNN
F 3 "" H 3700 3200 60  0000 C CNN
	1    3700 3200
	1    0    0    -1  
$EndComp
Wire Wire Line
	3400 3200 3500 3200
$Comp
L +12V #PWR05
U 1 1 55509DF1
P 3800 2500
F 0 "#PWR05" H 3800 2450 20  0001 C CNN
F 1 "+12V" H 3800 2600 30  0000 C CNN
F 2 "" H 3800 2500 60  0000 C CNN
F 3 "" H 3800 2500 60  0000 C CNN
	1    3800 2500
	1    0    0    -1  
$EndComp
$Comp
L RELAY_OJE-SS-112LM RL2
U 1 1 55509DF7
P 4150 2700
F 0 "RL2" H 4250 2425 60  0000 C CNN
F 1 "RELAY_OJE-SS-112LM" H 4250 2900 40  0000 C CNN
F 2 "" H 4150 2700 60  0001 C CNN
F 3 "" H 4150 2700 60  0000 C CNN
	1    4150 2700
	1    0    0    -1  
$EndComp
Wire Wire Line
	3800 2850 3800 2950
Wire Wire Line
	3800 2950 3800 3000
Wire Wire Line
	3800 2850 3850 2850
Wire Wire Line
	3800 2500 3800 2550
Wire Wire Line
	3800 2550 3800 2600
Wire Wire Line
	3800 2600 3850 2600
$Comp
L DIODE D2
U 1 1 55509E01
P 3700 2750
F 0 "D2" H 3700 2850 40  0000 C CNN
F 1 "1N4007" H 3700 2650 40  0000 C CNN
F 2 "Diodes_ThroughHole:Diode_DO-35_SOD27_Horizontal_RM10" H 3700 2750 60  0001 C CNN
F 3 "" H 3700 2750 60  0000 C CNN
	1    3700 2750
	0    -1   -1   0   
$EndComp
Wire Wire Line
	3700 2950 3800 2950
Connection ~ 3800 2950
Wire Wire Line
	3700 2550 3800 2550
Connection ~ 3800 2550
$Comp
L GND #PWR06
U 1 1 55509E0B
P 3800 3500
F 0 "#PWR06" H 3800 3500 30  0001 C CNN
F 1 "GND" H 3800 3430 30  0001 C CNN
F 2 "" H 3800 3500 60  0000 C CNN
F 3 "" H 3800 3500 60  0000 C CNN
	1    3800 3500
	1    0    0    -1  
$EndComp
Wire Wire Line
	3800 3400 3800 3500
$Comp
L CONN_01X05 P4
U 1 1 55509E12
P 5200 2800
F 0 "P4" H 5200 3100 50  0000 C CNN
F 1 "GROUP2" V 5300 2800 50  0000 C CNN
F 2 "fabLAB:MC000029" H 5200 2800 60  0001 C CNN
F 3 "" H 5200 2800 60  0000 C CNN
	1    5200 2800
	1    0    0    -1  
$EndComp
Wire Wire Line
	5000 2600 4600 2600
Wire Wire Line
	4900 2850 4600 2850
Wire Wire Line
	4900 2700 4900 2800
Wire Wire Line
	4900 2800 4900 2850
Wire Wire Line
	4900 2850 4900 2900
Wire Wire Line
	4900 2900 4900 3000
Wire Wire Line
	4900 2700 5000 2700
Wire Wire Line
	5000 2800 4900 2800
Connection ~ 4900 2800
Wire Wire Line
	4900 2900 5000 2900
Connection ~ 4900 2850
Wire Wire Line
	4900 3000 5000 3000
Connection ~ 4900 2900
$Comp
L R R3
U 1 1 5550A2D3
P 3150 4400
F 0 "R3" V 3230 4400 40  0000 C CNN
F 1 "220" V 3157 4401 40  0000 C CNN
F 2 "Discret:R3" V 3080 4400 30  0001 C CNN
F 3 "" H 3150 4400 30  0000 C CNN
	1    3150 4400
	0    1    1    0   
$EndComp
$Comp
L BD135 Q3
U 1 1 5550A2D9
P 3700 4400
F 0 "Q3" H 3700 4250 40  0000 R CNN
F 1 "BD135" H 3700 4550 40  0000 R CNN
F 2 "Housings_SOT:SOT126_SOT32_Housing_Vertical_BigPads" H 3580 4500 29  0001 C CNN
F 3 "" H 3700 4400 60  0000 C CNN
	1    3700 4400
	1    0    0    -1  
$EndComp
Wire Wire Line
	3400 4400 3500 4400
$Comp
L +12V #PWR07
U 1 1 5550A2E0
P 3800 3700
F 0 "#PWR07" H 3800 3650 20  0001 C CNN
F 1 "+12V" H 3800 3800 30  0000 C CNN
F 2 "" H 3800 3700 60  0000 C CNN
F 3 "" H 3800 3700 60  0000 C CNN
	1    3800 3700
	1    0    0    -1  
$EndComp
$Comp
L RELAY_OJE-SS-112LM RL3
U 1 1 5550A2E6
P 4150 3900
F 0 "RL3" H 4250 3625 60  0000 C CNN
F 1 "RELAY_OJE-SS-112LM" H 4250 4100 40  0000 C CNN
F 2 "" H 4150 3900 60  0001 C CNN
F 3 "" H 4150 3900 60  0000 C CNN
	1    4150 3900
	1    0    0    -1  
$EndComp
Wire Wire Line
	3800 4050 3800 4150
Wire Wire Line
	3800 4150 3800 4200
Wire Wire Line
	3800 4050 3850 4050
Wire Wire Line
	3800 3700 3800 3750
Wire Wire Line
	3800 3750 3800 3800
Wire Wire Line
	3800 3800 3850 3800
$Comp
L DIODE D3
U 1 1 5550A2F0
P 3700 3950
F 0 "D3" H 3700 4050 40  0000 C CNN
F 1 "1N4007" H 3700 3850 40  0000 C CNN
F 2 "Diodes_ThroughHole:Diode_DO-35_SOD27_Horizontal_RM10" H 3700 3950 60  0001 C CNN
F 3 "" H 3700 3950 60  0000 C CNN
	1    3700 3950
	0    -1   -1   0   
$EndComp
Wire Wire Line
	3700 4150 3800 4150
Connection ~ 3800 4150
Wire Wire Line
	3700 3750 3800 3750
Connection ~ 3800 3750
$Comp
L GND #PWR08
U 1 1 5550A2FA
P 3800 4700
F 0 "#PWR08" H 3800 4700 30  0001 C CNN
F 1 "GND" H 3800 4630 30  0001 C CNN
F 2 "" H 3800 4700 60  0000 C CNN
F 3 "" H 3800 4700 60  0000 C CNN
	1    3800 4700
	1    0    0    -1  
$EndComp
Wire Wire Line
	3800 4600 3800 4700
$Comp
L CONN_01X05 P5
U 1 1 5550A301
P 5200 4000
F 0 "P5" H 5200 4300 50  0000 C CNN
F 1 "GROUP3" V 5300 4000 50  0000 C CNN
F 2 "fabLAB:MC000029" H 5200 4000 60  0001 C CNN
F 3 "" H 5200 4000 60  0000 C CNN
	1    5200 4000
	1    0    0    -1  
$EndComp
Wire Wire Line
	5000 3800 4600 3800
Wire Wire Line
	4900 4050 4600 4050
Wire Wire Line
	4900 3900 4900 4000
Wire Wire Line
	4900 4000 4900 4050
Wire Wire Line
	4900 4050 4900 4100
Wire Wire Line
	4900 4100 4900 4200
Wire Wire Line
	4900 3900 5000 3900
Wire Wire Line
	5000 4000 4900 4000
Connection ~ 4900 4000
Wire Wire Line
	4900 4100 5000 4100
Connection ~ 4900 4050
Wire Wire Line
	4900 4200 5000 4200
Connection ~ 4900 4100
$Comp
L R R4
U 1 1 5550A311
P 3150 5600
F 0 "R4" V 3230 5600 40  0000 C CNN
F 1 "220" V 3157 5601 40  0000 C CNN
F 2 "Discret:R3" V 3080 5600 30  0001 C CNN
F 3 "" H 3150 5600 30  0000 C CNN
	1    3150 5600
	0    1    1    0   
$EndComp
$Comp
L BD135 Q4
U 1 1 5550A317
P 3700 5600
F 0 "Q4" H 3700 5450 40  0000 R CNN
F 1 "BD135" H 3700 5750 40  0000 R CNN
F 2 "Housings_SOT:SOT126_SOT32_Housing_Vertical_BigPads" H 3580 5700 29  0001 C CNN
F 3 "" H 3700 5600 60  0000 C CNN
	1    3700 5600
	1    0    0    -1  
$EndComp
Wire Wire Line
	3400 5600 3500 5600
$Comp
L +12V #PWR09
U 1 1 5550A31E
P 3800 4900
F 0 "#PWR09" H 3800 4850 20  0001 C CNN
F 1 "+12V" H 3800 5000 30  0000 C CNN
F 2 "" H 3800 4900 60  0000 C CNN
F 3 "" H 3800 4900 60  0000 C CNN
	1    3800 4900
	1    0    0    -1  
$EndComp
$Comp
L RELAY_OJE-SS-112LM RL4
U 1 1 5550A324
P 4150 5100
F 0 "RL4" H 4250 4825 60  0000 C CNN
F 1 "RELAY_OJE-SS-112LM" H 4250 5300 40  0000 C CNN
F 2 "" H 4150 5100 60  0001 C CNN
F 3 "" H 4150 5100 60  0000 C CNN
	1    4150 5100
	1    0    0    -1  
$EndComp
Wire Wire Line
	3800 5250 3800 5350
Wire Wire Line
	3800 5350 3800 5400
Wire Wire Line
	3800 5250 3850 5250
Wire Wire Line
	3800 4900 3800 4950
Wire Wire Line
	3800 4950 3800 5000
Wire Wire Line
	3800 5000 3850 5000
$Comp
L DIODE D4
U 1 1 5550A32E
P 3700 5150
F 0 "D4" H 3700 5250 40  0000 C CNN
F 1 "1N4007" H 3700 5050 40  0000 C CNN
F 2 "Diodes_ThroughHole:Diode_DO-35_SOD27_Horizontal_RM10" H 3700 5150 60  0001 C CNN
F 3 "" H 3700 5150 60  0000 C CNN
	1    3700 5150
	0    -1   -1   0   
$EndComp
Wire Wire Line
	3700 5350 3800 5350
Connection ~ 3800 5350
Wire Wire Line
	3700 4950 3800 4950
Connection ~ 3800 4950
$Comp
L GND #PWR010
U 1 1 5550A338
P 3800 5900
F 0 "#PWR010" H 3800 5900 30  0001 C CNN
F 1 "GND" H 3800 5830 30  0001 C CNN
F 2 "" H 3800 5900 60  0000 C CNN
F 3 "" H 3800 5900 60  0000 C CNN
	1    3800 5900
	1    0    0    -1  
$EndComp
Wire Wire Line
	3800 5800 3800 5900
$Comp
L CONN_01X05 P6
U 1 1 5550A33F
P 5200 5200
F 0 "P6" H 5200 5500 50  0000 C CNN
F 1 "GROUP4" V 5300 5200 50  0000 C CNN
F 2 "fabLAB:MC000029" H 5200 5200 60  0001 C CNN
F 3 "" H 5200 5200 60  0000 C CNN
	1    5200 5200
	1    0    0    -1  
$EndComp
Wire Wire Line
	5000 5000 4600 5000
Wire Wire Line
	4900 5250 4600 5250
Wire Wire Line
	4900 5100 4900 5200
Wire Wire Line
	4900 5200 4900 5250
Wire Wire Line
	4900 5250 4900 5300
Wire Wire Line
	4900 5300 4900 5400
Wire Wire Line
	4900 5100 5000 5100
Wire Wire Line
	5000 5200 4900 5200
Connection ~ 4900 5200
Wire Wire Line
	4900 5300 5000 5300
Connection ~ 4900 5250
Wire Wire Line
	4900 5400 5000 5400
Connection ~ 4900 5300
$Comp
L R R5
U 1 1 5550A58F
P 3150 6800
F 0 "R5" V 3230 6800 40  0000 C CNN
F 1 "220" V 3157 6801 40  0000 C CNN
F 2 "Discret:R3" V 3080 6800 30  0001 C CNN
F 3 "" H 3150 6800 30  0000 C CNN
	1    3150 6800
	0    1    1    0   
$EndComp
$Comp
L BD135 Q5
U 1 1 5550A595
P 3700 6800
F 0 "Q5" H 3700 6650 40  0000 R CNN
F 1 "BD135" H 3700 6950 40  0000 R CNN
F 2 "Housings_SOT:SOT126_SOT32_Housing_Vertical_BigPads" H 3580 6900 29  0001 C CNN
F 3 "" H 3700 6800 60  0000 C CNN
	1    3700 6800
	1    0    0    -1  
$EndComp
Wire Wire Line
	3400 6800 3500 6800
$Comp
L +12V #PWR011
U 1 1 5550A59C
P 3800 6100
F 0 "#PWR011" H 3800 6050 20  0001 C CNN
F 1 "+12V" H 3800 6200 30  0000 C CNN
F 2 "" H 3800 6100 60  0000 C CNN
F 3 "" H 3800 6100 60  0000 C CNN
	1    3800 6100
	1    0    0    -1  
$EndComp
$Comp
L RELAY_OJE-SS-112LM RL5
U 1 1 5550A5A2
P 4150 6300
F 0 "RL5" H 4250 6025 60  0000 C CNN
F 1 "RELAY_OJE-SS-112LM" H 4250 6500 40  0000 C CNN
F 2 "" H 4150 6300 60  0001 C CNN
F 3 "" H 4150 6300 60  0000 C CNN
	1    4150 6300
	1    0    0    -1  
$EndComp
Wire Wire Line
	3800 6450 3800 6550
Wire Wire Line
	3800 6550 3800 6600
Wire Wire Line
	3800 6450 3850 6450
Wire Wire Line
	3800 6100 3800 6150
Wire Wire Line
	3800 6150 3800 6200
Wire Wire Line
	3800 6200 3850 6200
$Comp
L DIODE D5
U 1 1 5550A5AC
P 3700 6350
F 0 "D5" H 3700 6450 40  0000 C CNN
F 1 "1N4007" H 3700 6250 40  0000 C CNN
F 2 "Diodes_ThroughHole:Diode_DO-35_SOD27_Horizontal_RM10" H 3700 6350 60  0001 C CNN
F 3 "" H 3700 6350 60  0000 C CNN
	1    3700 6350
	0    -1   -1   0   
$EndComp
Wire Wire Line
	3700 6550 3800 6550
Connection ~ 3800 6550
Wire Wire Line
	3700 6150 3800 6150
Connection ~ 3800 6150
$Comp
L GND #PWR012
U 1 1 5550A5B6
P 3800 7100
F 0 "#PWR012" H 3800 7100 30  0001 C CNN
F 1 "GND" H 3800 7030 30  0001 C CNN
F 2 "" H 3800 7100 60  0000 C CNN
F 3 "" H 3800 7100 60  0000 C CNN
	1    3800 7100
	1    0    0    -1  
$EndComp
Wire Wire Line
	3800 7000 3800 7100
$Comp
L CONN_01X05 P7
U 1 1 5550A5BD
P 5200 6400
F 0 "P7" H 5200 6700 50  0000 C CNN
F 1 "GROUP5" V 5300 6400 50  0000 C CNN
F 2 "fabLAB:MC000029" H 5200 6400 60  0001 C CNN
F 3 "" H 5200 6400 60  0000 C CNN
	1    5200 6400
	1    0    0    -1  
$EndComp
Wire Wire Line
	5000 6200 4600 6200
Wire Wire Line
	4900 6450 4600 6450
Wire Wire Line
	4900 6300 4900 6400
Wire Wire Line
	4900 6400 4900 6450
Wire Wire Line
	4900 6450 4900 6500
Wire Wire Line
	4900 6500 4900 6600
Wire Wire Line
	4900 6300 5000 6300
Wire Wire Line
	5000 6400 4900 6400
Connection ~ 4900 6400
Wire Wire Line
	4900 6500 5000 6500
Connection ~ 4900 6450
Wire Wire Line
	4900 6600 5000 6600
Connection ~ 4900 6500
$Comp
L R R6
U 1 1 5550AD7A
P 6050 2000
F 0 "R6" V 6130 2000 40  0000 C CNN
F 1 "220" V 6057 2001 40  0000 C CNN
F 2 "Discret:R3" V 5980 2000 30  0001 C CNN
F 3 "" H 6050 2000 30  0000 C CNN
	1    6050 2000
	0    1    1    0   
$EndComp
$Comp
L BD135 Q6
U 1 1 5550AD80
P 6600 2000
F 0 "Q6" H 6600 1850 40  0000 R CNN
F 1 "BD135" H 6600 2150 40  0000 R CNN
F 2 "Housings_SOT:SOT126_SOT32_Housing_Vertical_BigPads" H 6480 2100 29  0001 C CNN
F 3 "" H 6600 2000 60  0000 C CNN
	1    6600 2000
	1    0    0    -1  
$EndComp
Wire Wire Line
	6300 2000 6400 2000
$Comp
L +12V #PWR013
U 1 1 5550AD87
P 6700 1300
F 0 "#PWR013" H 6700 1250 20  0001 C CNN
F 1 "+12V" H 6700 1400 30  0000 C CNN
F 2 "" H 6700 1300 60  0000 C CNN
F 3 "" H 6700 1300 60  0000 C CNN
	1    6700 1300
	1    0    0    -1  
$EndComp
$Comp
L RELAY_OJE-SS-112LM RL6
U 1 1 5550AD8D
P 7050 1500
F 0 "RL6" H 7150 1225 60  0000 C CNN
F 1 "RELAY_OJE-SS-112LM" H 7150 1700 40  0000 C CNN
F 2 "" H 7050 1500 60  0001 C CNN
F 3 "" H 7050 1500 60  0000 C CNN
	1    7050 1500
	1    0    0    -1  
$EndComp
Wire Wire Line
	6700 1650 6700 1750
Wire Wire Line
	6700 1750 6700 1800
Wire Wire Line
	6700 1650 6750 1650
Wire Wire Line
	6700 1300 6700 1350
Wire Wire Line
	6700 1350 6700 1400
Wire Wire Line
	6700 1400 6750 1400
$Comp
L DIODE D6
U 1 1 5550AD97
P 6600 1550
F 0 "D6" H 6600 1650 40  0000 C CNN
F 1 "1N4007" H 6600 1450 40  0000 C CNN
F 2 "Diodes_ThroughHole:Diode_DO-35_SOD27_Horizontal_RM10" H 6600 1550 60  0001 C CNN
F 3 "" H 6600 1550 60  0000 C CNN
	1    6600 1550
	0    -1   -1   0   
$EndComp
Wire Wire Line
	6600 1750 6700 1750
Connection ~ 6700 1750
Wire Wire Line
	6600 1350 6700 1350
Connection ~ 6700 1350
$Comp
L GND #PWR014
U 1 1 5550ADA1
P 6700 2300
F 0 "#PWR014" H 6700 2300 30  0001 C CNN
F 1 "GND" H 6700 2230 30  0001 C CNN
F 2 "" H 6700 2300 60  0000 C CNN
F 3 "" H 6700 2300 60  0000 C CNN
	1    6700 2300
	1    0    0    -1  
$EndComp
Wire Wire Line
	6700 2200 6700 2300
$Comp
L CONN_01X05 P8
U 1 1 5550ADA8
P 8100 1600
F 0 "P8" H 8100 1900 50  0000 C CNN
F 1 "GROUP6" V 8200 1600 50  0000 C CNN
F 2 "fabLAB:MC000029" H 8100 1600 60  0001 C CNN
F 3 "" H 8100 1600 60  0000 C CNN
	1    8100 1600
	1    0    0    -1  
$EndComp
Wire Wire Line
	7900 1400 7500 1400
Wire Wire Line
	7800 1650 7500 1650
Wire Wire Line
	7800 1500 7800 1600
Wire Wire Line
	7800 1600 7800 1650
Wire Wire Line
	7800 1650 7800 1700
Wire Wire Line
	7800 1700 7800 1800
Wire Wire Line
	7800 1500 7900 1500
Wire Wire Line
	7900 1600 7800 1600
Connection ~ 7800 1600
Wire Wire Line
	7800 1700 7900 1700
Connection ~ 7800 1650
Wire Wire Line
	7800 1800 7900 1800
Connection ~ 7800 1700
$Comp
L R R7
U 1 1 5550ADB8
P 6050 3200
F 0 "R7" V 6130 3200 40  0000 C CNN
F 1 "220" V 6057 3201 40  0000 C CNN
F 2 "Discret:R3" V 5980 3200 30  0001 C CNN
F 3 "" H 6050 3200 30  0000 C CNN
	1    6050 3200
	0    1    1    0   
$EndComp
$Comp
L BD135 Q7
U 1 1 5550ADBE
P 6600 3200
F 0 "Q7" H 6600 3050 40  0000 R CNN
F 1 "BD135" H 6600 3350 40  0000 R CNN
F 2 "Housings_SOT:SOT126_SOT32_Housing_Vertical_BigPads" H 6480 3300 29  0001 C CNN
F 3 "" H 6600 3200 60  0000 C CNN
	1    6600 3200
	1    0    0    -1  
$EndComp
Wire Wire Line
	6300 3200 6400 3200
$Comp
L +12V #PWR015
U 1 1 5550ADC5
P 6700 2500
F 0 "#PWR015" H 6700 2450 20  0001 C CNN
F 1 "+12V" H 6700 2600 30  0000 C CNN
F 2 "" H 6700 2500 60  0000 C CNN
F 3 "" H 6700 2500 60  0000 C CNN
	1    6700 2500
	1    0    0    -1  
$EndComp
$Comp
L RELAY_OJE-SS-112LM RL7
U 1 1 5550ADCB
P 7050 2700
F 0 "RL7" H 7150 2425 60  0000 C CNN
F 1 "RELAY_OJE-SS-112LM" H 7150 2900 40  0000 C CNN
F 2 "" H 7050 2700 60  0001 C CNN
F 3 "" H 7050 2700 60  0000 C CNN
	1    7050 2700
	1    0    0    -1  
$EndComp
Wire Wire Line
	6700 2850 6700 2950
Wire Wire Line
	6700 2950 6700 3000
Wire Wire Line
	6700 2850 6750 2850
Wire Wire Line
	6700 2500 6700 2550
Wire Wire Line
	6700 2550 6700 2600
Wire Wire Line
	6700 2600 6750 2600
$Comp
L DIODE D7
U 1 1 5550ADD5
P 6600 2750
F 0 "D7" H 6600 2850 40  0000 C CNN
F 1 "1N4007" H 6600 2650 40  0000 C CNN
F 2 "Diodes_ThroughHole:Diode_DO-35_SOD27_Horizontal_RM10" H 6600 2750 60  0001 C CNN
F 3 "" H 6600 2750 60  0000 C CNN
	1    6600 2750
	0    -1   -1   0   
$EndComp
Wire Wire Line
	6600 2950 6700 2950
Connection ~ 6700 2950
Wire Wire Line
	6600 2550 6700 2550
Connection ~ 6700 2550
$Comp
L GND #PWR016
U 1 1 5550ADDF
P 6700 3500
F 0 "#PWR016" H 6700 3500 30  0001 C CNN
F 1 "GND" H 6700 3430 30  0001 C CNN
F 2 "" H 6700 3500 60  0000 C CNN
F 3 "" H 6700 3500 60  0000 C CNN
	1    6700 3500
	1    0    0    -1  
$EndComp
Wire Wire Line
	6700 3400 6700 3500
$Comp
L CONN_01X05 P9
U 1 1 5550ADE6
P 8100 2800
F 0 "P9" H 8100 3100 50  0000 C CNN
F 1 "GROUP7" V 8200 2800 50  0000 C CNN
F 2 "fabLAB:MC000029" H 8100 2800 60  0001 C CNN
F 3 "" H 8100 2800 60  0000 C CNN
	1    8100 2800
	1    0    0    -1  
$EndComp
Wire Wire Line
	7900 2600 7500 2600
Wire Wire Line
	7800 2850 7500 2850
Wire Wire Line
	7800 2700 7800 2800
Wire Wire Line
	7800 2800 7800 2850
Wire Wire Line
	7800 2850 7800 2900
Wire Wire Line
	7800 2900 7800 3000
Wire Wire Line
	7800 2700 7900 2700
Wire Wire Line
	7900 2800 7800 2800
Connection ~ 7800 2800
Wire Wire Line
	7800 2900 7900 2900
Connection ~ 7800 2850
Wire Wire Line
	7800 3000 7900 3000
Connection ~ 7800 2900
$Comp
L R R8
U 1 1 5550ADF6
P 6050 4400
F 0 "R8" V 6130 4400 40  0000 C CNN
F 1 "220" V 6057 4401 40  0000 C CNN
F 2 "Discret:R3" V 5980 4400 30  0001 C CNN
F 3 "" H 6050 4400 30  0000 C CNN
	1    6050 4400
	0    1    1    0   
$EndComp
$Comp
L BD135 Q8
U 1 1 5550ADFC
P 6600 4400
F 0 "Q8" H 6600 4250 40  0000 R CNN
F 1 "BD135" H 6600 4550 40  0000 R CNN
F 2 "Housings_SOT:SOT126_SOT32_Housing_Vertical_BigPads" H 6480 4500 29  0001 C CNN
F 3 "" H 6600 4400 60  0000 C CNN
	1    6600 4400
	1    0    0    -1  
$EndComp
Wire Wire Line
	6300 4400 6400 4400
$Comp
L +12V #PWR017
U 1 1 5550AE03
P 6700 3700
F 0 "#PWR017" H 6700 3650 20  0001 C CNN
F 1 "+12V" H 6700 3800 30  0000 C CNN
F 2 "" H 6700 3700 60  0000 C CNN
F 3 "" H 6700 3700 60  0000 C CNN
	1    6700 3700
	1    0    0    -1  
$EndComp
$Comp
L RELAY_OJE-SS-112LM RL8
U 1 1 5550AE09
P 7050 3900
F 0 "RL8" H 7150 3625 60  0000 C CNN
F 1 "RELAY_OJE-SS-112LM" H 7150 4100 40  0000 C CNN
F 2 "" H 7050 3900 60  0001 C CNN
F 3 "" H 7050 3900 60  0000 C CNN
	1    7050 3900
	1    0    0    -1  
$EndComp
Wire Wire Line
	6700 4050 6700 4150
Wire Wire Line
	6700 4150 6700 4200
Wire Wire Line
	6700 4050 6750 4050
Wire Wire Line
	6700 3700 6700 3750
Wire Wire Line
	6700 3750 6700 3800
Wire Wire Line
	6700 3800 6750 3800
$Comp
L DIODE D8
U 1 1 5550AE13
P 6600 3950
F 0 "D8" H 6600 4050 40  0000 C CNN
F 1 "1N4007" H 6600 3850 40  0000 C CNN
F 2 "Diodes_ThroughHole:Diode_DO-35_SOD27_Horizontal_RM10" H 6600 3950 60  0001 C CNN
F 3 "" H 6600 3950 60  0000 C CNN
	1    6600 3950
	0    -1   -1   0   
$EndComp
Wire Wire Line
	6600 4150 6700 4150
Connection ~ 6700 4150
Wire Wire Line
	6600 3750 6700 3750
Connection ~ 6700 3750
$Comp
L GND #PWR018
U 1 1 5550AE1D
P 6700 4700
F 0 "#PWR018" H 6700 4700 30  0001 C CNN
F 1 "GND" H 6700 4630 30  0001 C CNN
F 2 "" H 6700 4700 60  0000 C CNN
F 3 "" H 6700 4700 60  0000 C CNN
	1    6700 4700
	1    0    0    -1  
$EndComp
Wire Wire Line
	6700 4600 6700 4700
$Comp
L CONN_01X05 P10
U 1 1 5550AE24
P 8100 4000
F 0 "P10" H 8100 4300 50  0000 C CNN
F 1 "GROUP8" V 8200 4000 50  0000 C CNN
F 2 "fabLAB:MC000029" H 8100 4000 60  0001 C CNN
F 3 "" H 8100 4000 60  0000 C CNN
	1    8100 4000
	1    0    0    -1  
$EndComp
Wire Wire Line
	7900 3800 7500 3800
Wire Wire Line
	7800 4050 7500 4050
Wire Wire Line
	7800 3900 7800 4000
Wire Wire Line
	7800 4000 7800 4050
Wire Wire Line
	7800 4050 7800 4100
Wire Wire Line
	7800 4100 7800 4200
Wire Wire Line
	7800 3900 7900 3900
Wire Wire Line
	7900 4000 7800 4000
Connection ~ 7800 4000
Wire Wire Line
	7800 4100 7900 4100
Connection ~ 7800 4050
Wire Wire Line
	7800 4200 7900 4200
Connection ~ 7800 4100
$Comp
L R R9
U 1 1 5550AE34
P 6050 5600
F 0 "R9" V 6130 5600 40  0000 C CNN
F 1 "220" V 6057 5601 40  0000 C CNN
F 2 "Discret:R3" V 5980 5600 30  0001 C CNN
F 3 "" H 6050 5600 30  0000 C CNN
	1    6050 5600
	0    1    1    0   
$EndComp
$Comp
L BD135 Q9
U 1 1 5550AE3A
P 6600 5600
F 0 "Q9" H 6600 5450 40  0000 R CNN
F 1 "BD135" H 6600 5750 40  0000 R CNN
F 2 "Housings_SOT:SOT126_SOT32_Housing_Vertical_BigPads" H 6480 5700 29  0001 C CNN
F 3 "" H 6600 5600 60  0000 C CNN
	1    6600 5600
	1    0    0    -1  
$EndComp
Wire Wire Line
	6300 5600 6400 5600
$Comp
L +12V #PWR019
U 1 1 5550AE41
P 6700 4900
F 0 "#PWR019" H 6700 4850 20  0001 C CNN
F 1 "+12V" H 6700 5000 30  0000 C CNN
F 2 "" H 6700 4900 60  0000 C CNN
F 3 "" H 6700 4900 60  0000 C CNN
	1    6700 4900
	1    0    0    -1  
$EndComp
$Comp
L RELAY_OJE-SS-112LM RL9
U 1 1 5550AE47
P 7050 5100
F 0 "RL9" H 7150 4825 60  0000 C CNN
F 1 "RELAY_OJE-SS-112LM" H 7150 5300 40  0000 C CNN
F 2 "" H 7050 5100 60  0001 C CNN
F 3 "" H 7050 5100 60  0000 C CNN
	1    7050 5100
	1    0    0    -1  
$EndComp
Wire Wire Line
	6700 5250 6700 5350
Wire Wire Line
	6700 5350 6700 5400
Wire Wire Line
	6700 5250 6750 5250
Wire Wire Line
	6700 4900 6700 4950
Wire Wire Line
	6700 4950 6700 5000
Wire Wire Line
	6700 5000 6750 5000
$Comp
L DIODE D9
U 1 1 5550AE51
P 6600 5150
F 0 "D9" H 6600 5250 40  0000 C CNN
F 1 "1N4007" H 6600 5050 40  0000 C CNN
F 2 "Diodes_ThroughHole:Diode_DO-35_SOD27_Horizontal_RM10" H 6600 5150 60  0001 C CNN
F 3 "" H 6600 5150 60  0000 C CNN
	1    6600 5150
	0    -1   -1   0   
$EndComp
Wire Wire Line
	6600 5350 6700 5350
Connection ~ 6700 5350
Wire Wire Line
	6600 4950 6700 4950
Connection ~ 6700 4950
$Comp
L GND #PWR020
U 1 1 5550AE5B
P 6700 5900
F 0 "#PWR020" H 6700 5900 30  0001 C CNN
F 1 "GND" H 6700 5830 30  0001 C CNN
F 2 "" H 6700 5900 60  0000 C CNN
F 3 "" H 6700 5900 60  0000 C CNN
	1    6700 5900
	1    0    0    -1  
$EndComp
Wire Wire Line
	6700 5800 6700 5900
$Comp
L CONN_01X05 P11
U 1 1 5550AE62
P 8100 5200
F 0 "P11" H 8100 5500 50  0000 C CNN
F 1 "GROUP9" V 8200 5200 50  0000 C CNN
F 2 "fabLAB:MC000029" H 8100 5200 60  0001 C CNN
F 3 "" H 8100 5200 60  0000 C CNN
	1    8100 5200
	1    0    0    -1  
$EndComp
Wire Wire Line
	7900 5000 7500 5000
Wire Wire Line
	7800 5250 7500 5250
Wire Wire Line
	7800 5100 7800 5200
Wire Wire Line
	7800 5200 7800 5250
Wire Wire Line
	7800 5250 7800 5300
Wire Wire Line
	7800 5300 7800 5400
Wire Wire Line
	7800 5100 7900 5100
Wire Wire Line
	7900 5200 7800 5200
Connection ~ 7800 5200
Wire Wire Line
	7800 5300 7900 5300
Connection ~ 7800 5250
Wire Wire Line
	7800 5400 7900 5400
Connection ~ 7800 5300
$Comp
L R R10
U 1 1 5550B3FC
P 8850 2000
F 0 "R10" V 8930 2000 40  0000 C CNN
F 1 "220" V 8857 2001 40  0000 C CNN
F 2 "Discret:R3" V 8780 2000 30  0001 C CNN
F 3 "" H 8850 2000 30  0000 C CNN
	1    8850 2000
	0    1    1    0   
$EndComp
$Comp
L BD135 Q10
U 1 1 5550B402
P 9400 2000
F 0 "Q10" H 9400 1850 40  0000 R CNN
F 1 "BD135" H 9400 2150 40  0000 R CNN
F 2 "Housings_SOT:SOT126_SOT32_Housing_Vertical_BigPads" H 9280 2100 29  0001 C CNN
F 3 "" H 9400 2000 60  0000 C CNN
	1    9400 2000
	1    0    0    -1  
$EndComp
Wire Wire Line
	9100 2000 9200 2000
$Comp
L +12V #PWR021
U 1 1 5550B409
P 9500 1300
F 0 "#PWR021" H 9500 1250 20  0001 C CNN
F 1 "+12V" H 9500 1400 30  0000 C CNN
F 2 "" H 9500 1300 60  0000 C CNN
F 3 "" H 9500 1300 60  0000 C CNN
	1    9500 1300
	1    0    0    -1  
$EndComp
$Comp
L RELAY_OJE-SS-112LM RL10
U 1 1 5550B40F
P 9850 1500
F 0 "RL10" H 9950 1225 60  0000 C CNN
F 1 "RELAY_OJE-SS-112LM" H 9950 1700 40  0000 C CNN
F 2 "" H 9850 1500 60  0001 C CNN
F 3 "" H 9850 1500 60  0000 C CNN
	1    9850 1500
	1    0    0    -1  
$EndComp
Wire Wire Line
	9500 1650 9500 1750
Wire Wire Line
	9500 1750 9500 1800
Wire Wire Line
	9500 1650 9550 1650
Wire Wire Line
	9500 1300 9500 1350
Wire Wire Line
	9500 1350 9500 1400
Wire Wire Line
	9500 1400 9550 1400
$Comp
L DIODE D10
U 1 1 5550B419
P 9400 1550
F 0 "D10" H 9400 1650 40  0000 C CNN
F 1 "1N4007" H 9400 1450 40  0000 C CNN
F 2 "Diodes_ThroughHole:Diode_DO-35_SOD27_Horizontal_RM10" H 9400 1550 60  0001 C CNN
F 3 "" H 9400 1550 60  0000 C CNN
	1    9400 1550
	0    -1   -1   0   
$EndComp
Wire Wire Line
	9400 1750 9500 1750
Connection ~ 9500 1750
Wire Wire Line
	9400 1350 9500 1350
Connection ~ 9500 1350
$Comp
L GND #PWR022
U 1 1 5550B423
P 9500 2300
F 0 "#PWR022" H 9500 2300 30  0001 C CNN
F 1 "GND" H 9500 2230 30  0001 C CNN
F 2 "" H 9500 2300 60  0000 C CNN
F 3 "" H 9500 2300 60  0000 C CNN
	1    9500 2300
	1    0    0    -1  
$EndComp
Wire Wire Line
	9500 2200 9500 2300
$Comp
L CONN_01X05 P12
U 1 1 5550B42A
P 10900 1600
F 0 "P12" H 10900 1900 50  0000 C CNN
F 1 "GROUP10" V 11000 1600 50  0000 C CNN
F 2 "fabLAB:MC000029" H 10900 1600 60  0001 C CNN
F 3 "" H 10900 1600 60  0000 C CNN
	1    10900 1600
	1    0    0    -1  
$EndComp
Wire Wire Line
	10700 1400 10300 1400
Wire Wire Line
	10600 1650 10300 1650
Wire Wire Line
	10600 1500 10600 1600
Wire Wire Line
	10600 1600 10600 1650
Wire Wire Line
	10600 1650 10600 1700
Wire Wire Line
	10600 1700 10600 1800
Wire Wire Line
	10600 1500 10700 1500
Wire Wire Line
	10700 1600 10600 1600
Connection ~ 10600 1600
Wire Wire Line
	10600 1700 10700 1700
Connection ~ 10600 1650
Wire Wire Line
	10600 1800 10700 1800
Connection ~ 10600 1700
$Comp
L R R11
U 1 1 5550B43A
P 8850 3200
F 0 "R11" V 8930 3200 40  0000 C CNN
F 1 "220" V 8857 3201 40  0000 C CNN
F 2 "Discret:R3" V 8780 3200 30  0001 C CNN
F 3 "" H 8850 3200 30  0000 C CNN
	1    8850 3200
	0    1    1    0   
$EndComp
$Comp
L BD135 Q11
U 1 1 5550B440
P 9400 3200
F 0 "Q11" H 9400 3050 40  0000 R CNN
F 1 "BD135" H 9400 3350 40  0000 R CNN
F 2 "Housings_SOT:SOT126_SOT32_Housing_Vertical_BigPads" H 9280 3300 29  0001 C CNN
F 3 "" H 9400 3200 60  0000 C CNN
	1    9400 3200
	1    0    0    -1  
$EndComp
Wire Wire Line
	9100 3200 9200 3200
$Comp
L +12V #PWR023
U 1 1 5550B447
P 9500 2500
F 0 "#PWR023" H 9500 2450 20  0001 C CNN
F 1 "+12V" H 9500 2600 30  0000 C CNN
F 2 "" H 9500 2500 60  0000 C CNN
F 3 "" H 9500 2500 60  0000 C CNN
	1    9500 2500
	1    0    0    -1  
$EndComp
$Comp
L RELAY_OJE-SS-112LM RL11
U 1 1 5550B44D
P 9850 2700
F 0 "RL11" H 9950 2425 60  0000 C CNN
F 1 "RELAY_OJE-SS-112LM" H 9950 2900 40  0000 C CNN
F 2 "" H 9850 2700 60  0001 C CNN
F 3 "" H 9850 2700 60  0000 C CNN
	1    9850 2700
	1    0    0    -1  
$EndComp
Wire Wire Line
	9500 2850 9500 2950
Wire Wire Line
	9500 2950 9500 3000
Wire Wire Line
	9500 2850 9550 2850
Wire Wire Line
	9500 2500 9500 2550
Wire Wire Line
	9500 2550 9500 2600
Wire Wire Line
	9500 2600 9550 2600
$Comp
L DIODE D11
U 1 1 5550B457
P 9400 2750
F 0 "D11" H 9400 2850 40  0000 C CNN
F 1 "1N4007" H 9400 2650 40  0000 C CNN
F 2 "Diodes_ThroughHole:Diode_DO-35_SOD27_Horizontal_RM10" H 9400 2750 60  0001 C CNN
F 3 "" H 9400 2750 60  0000 C CNN
	1    9400 2750
	0    -1   -1   0   
$EndComp
Wire Wire Line
	9400 2950 9500 2950
Connection ~ 9500 2950
Wire Wire Line
	9400 2550 9500 2550
Connection ~ 9500 2550
$Comp
L GND #PWR024
U 1 1 5550B461
P 9500 3500
F 0 "#PWR024" H 9500 3500 30  0001 C CNN
F 1 "GND" H 9500 3430 30  0001 C CNN
F 2 "" H 9500 3500 60  0000 C CNN
F 3 "" H 9500 3500 60  0000 C CNN
	1    9500 3500
	1    0    0    -1  
$EndComp
Wire Wire Line
	9500 3400 9500 3500
$Comp
L CONN_01X05 P13
U 1 1 5550B468
P 10900 2800
F 0 "P13" H 10900 3100 50  0000 C CNN
F 1 "GROUP11" V 11000 2800 50  0000 C CNN
F 2 "fabLAB:MC000029" H 10900 2800 60  0001 C CNN
F 3 "" H 10900 2800 60  0000 C CNN
	1    10900 2800
	1    0    0    -1  
$EndComp
Wire Wire Line
	10700 2600 10300 2600
Wire Wire Line
	10600 2850 10300 2850
Wire Wire Line
	10600 2700 10600 2800
Wire Wire Line
	10600 2800 10600 2850
Wire Wire Line
	10600 2850 10600 2900
Wire Wire Line
	10600 2900 10600 3000
Wire Wire Line
	10600 2700 10700 2700
Wire Wire Line
	10700 2800 10600 2800
Connection ~ 10600 2800
Wire Wire Line
	10600 2900 10700 2900
Connection ~ 10600 2850
Wire Wire Line
	10600 3000 10700 3000
Connection ~ 10600 2900
$Comp
L R R12
U 1 1 5550B478
P 8850 4400
F 0 "R12" V 8930 4400 40  0000 C CNN
F 1 "220" V 8857 4401 40  0000 C CNN
F 2 "Discret:R3" V 8780 4400 30  0001 C CNN
F 3 "" H 8850 4400 30  0000 C CNN
	1    8850 4400
	0    1    1    0   
$EndComp
$Comp
L BD135 Q12
U 1 1 5550B47E
P 9400 4400
F 0 "Q12" H 9400 4250 40  0000 R CNN
F 1 "BD135" H 9400 4550 40  0000 R CNN
F 2 "Housings_SOT:SOT126_SOT32_Housing_Vertical_BigPads" H 9280 4500 29  0001 C CNN
F 3 "" H 9400 4400 60  0000 C CNN
	1    9400 4400
	1    0    0    -1  
$EndComp
Wire Wire Line
	9100 4400 9200 4400
$Comp
L +12V #PWR025
U 1 1 5550B485
P 9500 3700
F 0 "#PWR025" H 9500 3650 20  0001 C CNN
F 1 "+12V" H 9500 3800 30  0000 C CNN
F 2 "" H 9500 3700 60  0000 C CNN
F 3 "" H 9500 3700 60  0000 C CNN
	1    9500 3700
	1    0    0    -1  
$EndComp
$Comp
L RELAY_OJE-SS-112LM RL12
U 1 1 5550B48B
P 9850 3900
F 0 "RL12" H 9950 3625 60  0000 C CNN
F 1 "RELAY_OJE-SS-112LM" H 9950 4100 40  0000 C CNN
F 2 "" H 9850 3900 60  0001 C CNN
F 3 "" H 9850 3900 60  0000 C CNN
	1    9850 3900
	1    0    0    -1  
$EndComp
Wire Wire Line
	9500 4050 9500 4150
Wire Wire Line
	9500 4150 9500 4200
Wire Wire Line
	9500 4050 9550 4050
Wire Wire Line
	9500 3700 9500 3750
Wire Wire Line
	9500 3750 9500 3800
Wire Wire Line
	9500 3800 9550 3800
$Comp
L DIODE D12
U 1 1 5550B495
P 9400 3950
F 0 "D12" H 9400 4050 40  0000 C CNN
F 1 "1N4007" H 9400 3850 40  0000 C CNN
F 2 "Diodes_ThroughHole:Diode_DO-35_SOD27_Horizontal_RM10" H 9400 3950 60  0001 C CNN
F 3 "" H 9400 3950 60  0000 C CNN
	1    9400 3950
	0    -1   -1   0   
$EndComp
Wire Wire Line
	9400 4150 9500 4150
Connection ~ 9500 4150
Wire Wire Line
	9400 3750 9500 3750
Connection ~ 9500 3750
$Comp
L GND #PWR026
U 1 1 5550B49F
P 9500 4700
F 0 "#PWR026" H 9500 4700 30  0001 C CNN
F 1 "GND" H 9500 4630 30  0001 C CNN
F 2 "" H 9500 4700 60  0000 C CNN
F 3 "" H 9500 4700 60  0000 C CNN
	1    9500 4700
	1    0    0    -1  
$EndComp
Wire Wire Line
	9500 4600 9500 4700
$Comp
L CONN_01X05 P14
U 1 1 5550B4A6
P 10900 4000
F 0 "P14" H 10900 4300 50  0000 C CNN
F 1 "GROUP12" V 11000 4000 50  0000 C CNN
F 2 "fabLAB:MC000029" H 10900 4000 60  0001 C CNN
F 3 "" H 10900 4000 60  0000 C CNN
	1    10900 4000
	1    0    0    -1  
$EndComp
Wire Wire Line
	10700 3800 10300 3800
Wire Wire Line
	10600 4050 10300 4050
Wire Wire Line
	10600 3900 10600 4000
Wire Wire Line
	10600 4000 10600 4050
Wire Wire Line
	10600 4050 10600 4100
Wire Wire Line
	10600 4100 10600 4200
Wire Wire Line
	10600 3900 10700 3900
Wire Wire Line
	10700 4000 10600 4000
Connection ~ 10600 4000
Wire Wire Line
	10600 4100 10700 4100
Connection ~ 10600 4050
Wire Wire Line
	10600 4200 10700 4200
Connection ~ 10600 4100
$Comp
L R R13
U 1 1 5550B4B6
P 8850 5600
F 0 "R13" V 8930 5600 40  0000 C CNN
F 1 "220" V 8857 5601 40  0000 C CNN
F 2 "Discret:R3" V 8780 5600 30  0001 C CNN
F 3 "" H 8850 5600 30  0000 C CNN
	1    8850 5600
	0    1    1    0   
$EndComp
$Comp
L BD135 Q13
U 1 1 5550B4BC
P 9400 5600
F 0 "Q13" H 9400 5450 40  0000 R CNN
F 1 "BD135" H 9400 5750 40  0000 R CNN
F 2 "Housings_SOT:SOT126_SOT32_Housing_Vertical_BigPads" H 9280 5700 29  0001 C CNN
F 3 "" H 9400 5600 60  0000 C CNN
	1    9400 5600
	1    0    0    -1  
$EndComp
Wire Wire Line
	9100 5600 9200 5600
$Comp
L +12V #PWR027
U 1 1 5550B4C3
P 9500 4900
F 0 "#PWR027" H 9500 4850 20  0001 C CNN
F 1 "+12V" H 9500 5000 30  0000 C CNN
F 2 "" H 9500 4900 60  0000 C CNN
F 3 "" H 9500 4900 60  0000 C CNN
	1    9500 4900
	1    0    0    -1  
$EndComp
$Comp
L RELAY_OJE-SS-112LM RL13
U 1 1 5550B4C9
P 9850 5100
F 0 "RL13" H 9950 4825 60  0000 C CNN
F 1 "RELAY_OJE-SS-112LM" H 9950 5300 40  0000 C CNN
F 2 "" H 9850 5100 60  0001 C CNN
F 3 "" H 9850 5100 60  0000 C CNN
	1    9850 5100
	1    0    0    -1  
$EndComp
Wire Wire Line
	9500 5250 9500 5350
Wire Wire Line
	9500 5350 9500 5400
Wire Wire Line
	9500 5250 9550 5250
Wire Wire Line
	9500 4900 9500 4950
Wire Wire Line
	9500 4950 9500 5000
Wire Wire Line
	9500 5000 9550 5000
$Comp
L DIODE D13
U 1 1 5550B4D3
P 9400 5150
F 0 "D13" H 9400 5250 40  0000 C CNN
F 1 "1N4007" H 9400 5050 40  0000 C CNN
F 2 "Diodes_ThroughHole:Diode_DO-35_SOD27_Horizontal_RM10" H 9400 5150 60  0001 C CNN
F 3 "" H 9400 5150 60  0000 C CNN
	1    9400 5150
	0    -1   -1   0   
$EndComp
Wire Wire Line
	9400 5350 9500 5350
Connection ~ 9500 5350
Wire Wire Line
	9400 4950 9500 4950
Connection ~ 9500 4950
$Comp
L GND #PWR028
U 1 1 5550B4DD
P 9500 5900
F 0 "#PWR028" H 9500 5900 30  0001 C CNN
F 1 "GND" H 9500 5830 30  0001 C CNN
F 2 "" H 9500 5900 60  0000 C CNN
F 3 "" H 9500 5900 60  0000 C CNN
	1    9500 5900
	1    0    0    -1  
$EndComp
Wire Wire Line
	9500 5800 9500 5900
$Comp
L CONN_01X05 P15
U 1 1 5550B4E4
P 10900 5200
F 0 "P15" H 10900 5500 50  0000 C CNN
F 1 "GROUP13" V 11000 5200 50  0000 C CNN
F 2 "fabLAB:MC000029" H 10900 5200 60  0001 C CNN
F 3 "" H 10900 5200 60  0000 C CNN
	1    10900 5200
	1    0    0    -1  
$EndComp
Wire Wire Line
	10700 5000 10300 5000
Wire Wire Line
	10600 5250 10300 5250
Wire Wire Line
	10600 5100 10600 5200
Wire Wire Line
	10600 5200 10600 5250
Wire Wire Line
	10600 5250 10600 5300
Wire Wire Line
	10600 5300 10600 5400
Wire Wire Line
	10600 5100 10700 5100
Wire Wire Line
	10700 5200 10600 5200
Connection ~ 10600 5200
Wire Wire Line
	10600 5300 10700 5300
Connection ~ 10600 5250
Wire Wire Line
	10600 5400 10700 5400
Connection ~ 10600 5300
Text GLabel 2850 2000 0    39   Input ~ 0
GPIO5
Wire Wire Line
	2850 2000 2900 2000
Text GLabel 2850 3200 0    39   Input ~ 0
GPIO6
Wire Wire Line
	2850 3200 2900 3200
Text GLabel 2850 4400 0    39   Input ~ 0
GPIO12
Wire Wire Line
	2850 4400 2900 4400
Text GLabel 2850 5600 0    39   Input ~ 0
GPIO13
Wire Wire Line
	2850 5600 2900 5600
Text GLabel 2850 6800 0    39   Input ~ 0
GPIO16
Wire Wire Line
	2850 6800 2900 6800
Text GLabel 5750 2000 0    39   Input ~ 0
GPIO17
Wire Wire Line
	5750 2000 5800 2000
Text GLabel 5750 3200 0    39   Input ~ 0
GPIO18
Text GLabel 5750 4400 0    39   Input ~ 0
GPIO19
Wire Wire Line
	5750 3200 5800 3200
Wire Wire Line
	5750 4400 5800 4400
Text GLabel 5750 5600 0    39   Input ~ 0
GPIO20
Wire Wire Line
	5750 5600 5800 5600
Text GLabel 8550 2000 0    39   Input ~ 0
GPIO21
Wire Wire Line
	8550 2000 8600 2000
Text GLabel 8550 3200 0    39   Input ~ 0
GPIO22
Text GLabel 8550 4400 0    39   Input ~ 0
GPIO23
Text GLabel 8550 5600 0    39   Input ~ 0
GPIO24
Wire Wire Line
	8550 5600 8600 5600
Wire Wire Line
	8550 4400 8600 4400
Wire Wire Line
	8550 3200 8600 3200
$Comp
L CONN_01X02 P1
U 1 1 5551213C
P 1000 1700
F 0 "P1" H 1000 1850 50  0000 C CNN
F 1 "DC" V 1100 1700 50  0000 C CNN
F 2 "Connect:JACK_ALIM" H 1000 1700 60  0001 C CNN
F 3 "" H 1000 1700 60  0000 C CNN
	1    1000 1700
	-1   0    0    -1  
$EndComp
$Comp
L +12V #PWR029
U 1 1 55512534
P 1300 1550
F 0 "#PWR029" H 1300 1500 20  0001 C CNN
F 1 "+12V" H 1300 1650 30  0000 C CNN
F 2 "" H 1300 1550 60  0000 C CNN
F 3 "" H 1300 1550 60  0000 C CNN
	1    1300 1550
	1    0    0    -1  
$EndComp
Wire Wire Line
	1200 1650 1300 1650
Wire Wire Line
	1300 1650 1300 1550
$Comp
L GND #PWR030
U 1 1 555126F6
P 1300 1850
F 0 "#PWR030" H 1300 1850 30  0001 C CNN
F 1 "GND" H 1300 1780 30  0001 C CNN
F 2 "" H 1300 1850 60  0000 C CNN
F 3 "" H 1300 1850 60  0000 C CNN
	1    1300 1850
	1    0    0    -1  
$EndComp
Wire Wire Line
	1200 1750 1300 1750
Wire Wire Line
	1300 1750 1300 1850
$Comp
L +12V #PWR031
U 1 1 55512CA7
P 1800 1450
F 0 "#PWR031" H 1800 1400 20  0001 C CNN
F 1 "+12V" H 1800 1550 30  0000 C CNN
F 2 "" H 1800 1450 60  0000 C CNN
F 3 "" H 1800 1450 60  0000 C CNN
	1    1800 1450
	1    0    0    -1  
$EndComp
$Comp
L GND #PWR032
U 1 1 55512CF5
P 1800 2000
F 0 "#PWR032" H 1800 2000 30  0001 C CNN
F 1 "GND" H 1800 1930 30  0001 C CNN
F 2 "" H 1800 2000 60  0000 C CNN
F 3 "" H 1800 2000 60  0000 C CNN
	1    1800 2000
	1    0    0    -1  
$EndComp
$Comp
L CAPAPOL C2
U 1 1 55512D02
P 1800 1700
F 0 "C2" H 1850 1800 40  0000 L CNN
F 1 "330uF" H 1850 1600 40  0000 L CNN
F 2 "Capacitors_ThroughHole:C_Radial_D12.5_L25_P5" H 1900 1550 30  0001 C CNN
F 3 "" H 1800 1700 300 0000 C CNN
	1    1800 1700
	1    0    0    -1  
$EndComp
Wire Wire Line
	1800 1500 1800 1450
Wire Wire Line
	1800 1900 1800 2000
$Comp
L +12V #PWR033
U 1 1 55513AC1
P 1550 1450
F 0 "#PWR033" H 1550 1400 20  0001 C CNN
F 1 "+12V" H 1550 1550 30  0000 C CNN
F 2 "" H 1550 1450 60  0000 C CNN
F 3 "" H 1550 1450 60  0000 C CNN
	1    1550 1450
	1    0    0    -1  
$EndComp
$Comp
L GND #PWR034
U 1 1 55513AC7
P 1550 2000
F 0 "#PWR034" H 1550 2000 30  0001 C CNN
F 1 "GND" H 1550 1930 30  0001 C CNN
F 2 "" H 1550 2000 60  0000 C CNN
F 3 "" H 1550 2000 60  0000 C CNN
	1    1550 2000
	1    0    0    -1  
$EndComp
$Comp
L CAPAPOL C1
U 1 1 55513ACD
P 1550 1700
F 0 "C1" H 1600 1800 40  0000 L CNN
F 1 "330uF" H 1600 1600 40  0000 L CNN
F 2 "Capacitors_ThroughHole:C_Radial_D12.5_L25_P5" H 1650 1550 30  0001 C CNN
F 3 "" H 1550 1700 300 0000 C CNN
	1    1550 1700
	1    0    0    -1  
$EndComp
Wire Wire Line
	1550 1500 1550 1450
Wire Wire Line
	1550 1900 1550 2000
$EndSCHEMATC
