%!PS-Adobe-3.0
%%Creator: PCBNEW
%%CreationDate: Tue May 12 13:27:18 2015
%%Title: /home/zako/ownCloud/Compartido/FabLAB/Residencias/DKV 2015 Rodrigo Martin Freire/PCBDKV2015/PCBDKV2015-F_Cu.ps
%%Pages: 1
%%PageOrder: Ascend
%%BoundingBox: 0 0 596 842
%%DocumentMedia: A4 595 842 0 () ()
%%Orientation: Landscape
%%EndComments
%%BeginProlog
/line { newpath moveto lineto stroke } bind def
/cir0 { newpath 0 360 arc stroke } bind def
/cir1 { newpath 0 360 arc gsave fill grestore stroke } bind def
/cir2 { newpath 0 360 arc gsave fill grestore stroke } bind def
/arc0 { newpath arc stroke } bind def
/arc1 { newpath 4 index 4 index moveto arc closepath gsave fill
    grestore stroke } bind def
/arc2 { newpath 4 index 4 index moveto arc closepath gsave fill
    grestore stroke } bind def
/poly0 { stroke } bind def
/poly1 { closepath gsave fill grestore stroke } bind def
/poly2 { closepath gsave fill grestore stroke } bind def
/rect0 { rectstroke } bind def
/rect1 { rectfill } bind def
/rect2 { rectfill } bind def
/linemode0 { 0 setlinecap 0 setlinejoin 0 setlinewidth } bind def
/linemode1 { 1 setlinecap 1 setlinejoin } bind def
/dashedline { [200] 100 setdash } bind def
/solidline { [] 0 setdash } bind def
/phantomshow { moveto
    /KicadFont findfont 0.000001 scalefont setfont
    show } bind def
/textshow { gsave
    findfont exch scalefont setfont concat 1 scale 0 0 moveto show
    } bind def
/reencodefont {
  findfont dup length dict begin
  { 1 index /FID ne
    { def }
    { pop pop } ifelse
  } forall
  /Encoding ISOLatin1Encoding def
  currentdict
  end } bind def
/KicadFont /Helvetica reencodefont definefont pop
/KicadFont-Bold /Helvetica-Bold reencodefont definefont pop
/KicadFont-Oblique /Helvetica-Oblique reencodefont definefont pop
/KicadFont-BoldOblique /Helvetica-BoldOblique reencodefont definefont pop
%%EndProlog
%%Page: 1 1
%%BeginPageSetup
gsave
0.0072 0.0072 scale
linemode1
82680 0 translate 90 rotate
39.3701 setlinewidth
%%EndPageSetup
0 0 0 setrgbcolor
0 0 0 setrgbcolor
39.3701 setlinewidth
18168.5 64480 314.961 cir1
0 0 0 setrgbcolor
newpath
15885 64165 moveto
15885 64795 lineto
16515 64795 lineto
16515 64165 lineto
15885 64165 lineto
poly1
0 0 0 setrgbcolor
18168.5 57280 314.961 cir1
0 0 0 setrgbcolor
newpath
15885 56965 moveto
15885 57595 lineto
16515 57595 lineto
16515 56965 lineto
15885 56965 lineto
poly1
0 0 0 setrgbcolor
23699.8 53779 314.815 cir1
0 0 0 setrgbcolor
newpath
27385 53464.2 moveto
27385 54093.8 lineto
28014.6 54093.8 lineto
28014.6 53464.2 lineto
27385 53464.2 lineto
poly1
0 0 0 setrgbcolor
34699.8 53679 314.815 cir1
0 0 0 setrgbcolor
newpath
38385 53364.2 moveto
38385 53993.8 lineto
39014.6 53993.8 lineto
39014.6 53364.2 lineto
38385 53364.2 lineto
poly1
0 0 0 setrgbcolor
45499.8 53579 314.815 cir1
0 0 0 setrgbcolor
newpath
49185 53264.2 moveto
49185 53893.8 lineto
49814.6 53893.8 lineto
49814.6 53264.2 lineto
49185 53264.2 lineto
poly1
0 0 0 setrgbcolor
56499.8 53579 314.815 cir1
0 0 0 setrgbcolor
newpath
60185 53264.2 moveto
60185 53893.8 lineto
60814.6 53893.8 lineto
60814.6 53264.2 lineto
60185 53264.2 lineto
poly1
0 0 0 setrgbcolor
67299.8 53479 314.815 cir1
0 0 0 setrgbcolor
newpath
70985 53164.2 moveto
70985 53793.8 lineto
71614.6 53793.8 lineto
71614.6 53164.2 lineto
70985 53164.2 lineto
poly1
0 0 0 setrgbcolor
75599 56580.2 314.815 cir1
0 0 0 setrgbcolor
newpath
75284.2 52895 moveto
75913.8 52895 lineto
75913.8 52265.4 lineto
75284.2 52265.4 lineto
75284.2 52895 lineto
poly1
0 0 0 setrgbcolor
75599 45380.2 314.815 cir1
0 0 0 setrgbcolor
newpath
75284.2 41695 moveto
75913.8 41695 lineto
75913.8 41065.4 lineto
75284.2 41065.4 lineto
75284.2 41695 lineto
poly1
0 0 0 setrgbcolor
75699 34380.2 314.815 cir1
0 0 0 setrgbcolor
newpath
75384.2 30695 moveto
76013.8 30695 lineto
76013.8 30065.4 lineto
75384.2 30065.4 lineto
75384.2 30695 lineto
poly1
0 0 0 setrgbcolor
71400.2 36381 314.815 cir1
0 0 0 setrgbcolor
newpath
67715 36695.8 moveto
67715 36066.2 lineto
67085.4 36066.2 lineto
67085.4 36695.8 lineto
67715 36695.8 lineto
poly1
0 0 0 setrgbcolor
60600.2 36481 314.815 cir1
0 0 0 setrgbcolor
newpath
56915 36795.8 moveto
56915 36166.2 lineto
56285.4 36166.2 lineto
56285.4 36795.8 lineto
56915 36795.8 lineto
poly1
0 0 0 setrgbcolor
49700.2 36481 314.815 cir1
0 0 0 setrgbcolor
newpath
46015 36795.8 moveto
46015 36166.2 lineto
45385.4 36166.2 lineto
45385.4 36795.8 lineto
46015 36795.8 lineto
poly1
0 0 0 setrgbcolor
38600.2 36481 314.815 cir1
0 0 0 setrgbcolor
newpath
34915 36795.8 moveto
34915 36166.2 lineto
34285.4 36166.2 lineto
34285.4 36795.8 lineto
34915 36795.8 lineto
poly1
0 0 0 setrgbcolor
27700.2 36481 314.815 cir1
0 0 0 setrgbcolor
newpath
24015 36795.8 moveto
24015 36166.2 lineto
23385.4 36166.2 lineto
23385.4 36795.8 lineto
24015 36795.8 lineto
poly1
0 0 0 setrgbcolor
11170 60980 925.315 cir1
0 0 0 setrgbcolor
newpath
12644.7 60054.7 moveto
12644.7 61905.3 lineto
14495.3 61905.3 lineto
14495.3 60054.7 lineto
12644.7 60054.7 lineto
poly1
0 0 0 setrgbcolor
12070 58980 925.315 cir1
0 0 0 setrgbcolor
newpath
13619.7 48260.3 moveto
14180.3 48260.3 lineto
14180.3 47699.7 lineto
13619.7 47699.7 lineto
13619.7 48260.3 lineto
poly1
0 0 0 setrgbcolor
14900 47980 280.315 cir1
0 0 0 setrgbcolor
13900 46980 280.315 cir1
0 0 0 setrgbcolor
14900 46980 280.315 cir1
0 0 0 setrgbcolor
13900 45980 280.315 cir1
0 0 0 setrgbcolor
14900 45980 280.315 cir1
0 0 0 setrgbcolor
13900 44980 280.315 cir1
0 0 0 setrgbcolor
14900 44980 280.315 cir1
0 0 0 setrgbcolor
13900 43980 280.315 cir1
0 0 0 setrgbcolor
14900 43980 280.315 cir1
0 0 0 setrgbcolor
13900 42980 280.315 cir1
0 0 0 setrgbcolor
14900 42980 280.315 cir1
0 0 0 setrgbcolor
13900 41980 280.315 cir1
0 0 0 setrgbcolor
14900 41980 280.315 cir1
0 0 0 setrgbcolor
13900 40980 280.315 cir1
0 0 0 setrgbcolor
14900 40980 280.315 cir1
0 0 0 setrgbcolor
13900 39980 280.315 cir1
0 0 0 setrgbcolor
14900 39980 280.315 cir1
0 0 0 setrgbcolor
13900 38980 280.315 cir1
0 0 0 setrgbcolor
14900 38980 280.315 cir1
0 0 0 setrgbcolor
14300 51480 1055.31 cir1
0 0 0 setrgbcolor
13900 37980 280.315 cir1
0 0 0 setrgbcolor
14900 37980 280.315 cir1
0 0 0 setrgbcolor
13900 36980 280.315 cir1
0 0 0 setrgbcolor
14900 36980 280.315 cir1
0 0 0 setrgbcolor
13900 35980 280.315 cir1
0 0 0 setrgbcolor
14900 35980 280.315 cir1
0 0 0 setrgbcolor
13900 34980 280.315 cir1
0 0 0 setrgbcolor
14900 34980 280.315 cir1
0 0 0 setrgbcolor
13900 33980 280.315 cir1
0 0 0 setrgbcolor
14900 33980 280.315 cir1
0 0 0 setrgbcolor
13900 32980 280.315 cir1
0 0 0 setrgbcolor
14900 32980 280.315 cir1
0 0 0 setrgbcolor
13900 31980 280.315 cir1
0 0 0 setrgbcolor
14900 31980 280.315 cir1
0 0 0 setrgbcolor
13900 30980 280.315 cir1
0 0 0 setrgbcolor
14900 30980 280.315 cir1
0 0 0 setrgbcolor
13900 29980 280.315 cir1
0 0 0 setrgbcolor
14900 29980 280.315 cir1
0 0 0 setrgbcolor
13900 28980 280.315 cir1
0 0 0 setrgbcolor
14900 28980 280.315 cir1
0 0 0 setrgbcolor
14300 25480 1055.31 cir1
0 0 0 setrgbcolor
newpath
21399.6 65276.6 moveto
21399.6 66103.4 lineto
22226.4 66103.4 lineto
22226.4 65276.6 lineto
21399.6 65276.6 lineto
poly1
0 0 0 setrgbcolor
23781.5 65690 413.386 cir1
0 0 0 setrgbcolor
25750 65690 413.386 cir1
0 0 0 setrgbcolor
27718.5 65690 413.386 cir1
0 0 0 setrgbcolor
29687 65690 413.386 cir1
0 0 0 setrgbcolor
newpath
32349.6 65266.6 moveto
32349.6 66093.4 lineto
33176.4 66093.4 lineto
33176.4 65266.6 lineto
32349.6 65266.6 lineto
poly1
0 0 0 setrgbcolor
34731.5 65680 413.386 cir1
0 0 0 setrgbcolor
36700 65680 413.386 cir1
0 0 0 setrgbcolor
38668.5 65680 413.386 cir1
0 0 0 setrgbcolor
40637 65680 413.386 cir1
0 0 0 setrgbcolor
newpath
43249.6 65266.6 moveto
43249.6 66093.4 lineto
44076.4 66093.4 lineto
44076.4 65266.6 lineto
43249.6 65266.6 lineto
poly1
0 0 0 setrgbcolor
45631.5 65680 413.386 cir1
0 0 0 setrgbcolor
47600 65680 413.386 cir1
0 0 0 setrgbcolor
49568.5 65680 413.386 cir1
0 0 0 setrgbcolor
51537 65680 413.386 cir1
0 0 0 setrgbcolor
newpath
54149.6 65266.6 moveto
54149.6 66093.4 lineto
54976.4 66093.4 lineto
54976.4 65266.6 lineto
54149.6 65266.6 lineto
poly1
0 0 0 setrgbcolor
56531.5 65680 413.386 cir1
0 0 0 setrgbcolor
58500 65680 413.386 cir1
0 0 0 setrgbcolor
60468.5 65680 413.386 cir1
0 0 0 setrgbcolor
62437 65680 413.386 cir1
0 0 0 setrgbcolor
newpath
65049.6 65266.6 moveto
65049.6 66093.4 lineto
65876.4 66093.4 lineto
65876.4 65266.6 lineto
65049.6 65266.6 lineto
poly1
0 0 0 setrgbcolor
67431.5 65680 413.386 cir1
0 0 0 setrgbcolor
69400 65680 413.386 cir1
0 0 0 setrgbcolor
71368.5 65680 413.386 cir1
0 0 0 setrgbcolor
73337 65680 413.386 cir1
0 0 0 setrgbcolor
newpath
86486.6 58830.4 moveto
87313.4 58830.4 lineto
87313.4 58003.6 lineto
86486.6 58003.6 lineto
86486.6 58830.4 lineto
poly1
0 0 0 setrgbcolor
86900 56448.5 413.386 cir1
0 0 0 setrgbcolor
86900 54480 413.386 cir1
0 0 0 setrgbcolor
86900 52511.5 413.386 cir1
0 0 0 setrgbcolor
86900 50543 413.386 cir1
0 0 0 setrgbcolor
newpath
86486.6 47630.4 moveto
87313.4 47630.4 lineto
87313.4 46803.6 lineto
86486.6 46803.6 lineto
86486.6 47630.4 lineto
poly1
0 0 0 setrgbcolor
86900 45248.5 413.386 cir1
0 0 0 setrgbcolor
86900 43280 413.386 cir1
0 0 0 setrgbcolor
86900 41311.5 413.386 cir1
0 0 0 setrgbcolor
86900 39343 413.386 cir1
0 0 0 setrgbcolor
newpath
86486.6 36630.4 moveto
87313.4 36630.4 lineto
87313.4 35803.6 lineto
86486.6 35803.6 lineto
86486.6 36630.4 lineto
poly1
0 0 0 setrgbcolor
86900 34248.5 413.386 cir1
0 0 0 setrgbcolor
86900 32280 413.386 cir1
0 0 0 setrgbcolor
86900 30311.5 413.386 cir1
0 0 0 setrgbcolor
86900 28343 413.386 cir1
0 0 0 setrgbcolor
newpath
73650.4 25293.4 moveto
73650.4 24466.6 lineto
72823.6 24466.6 lineto
72823.6 25293.4 lineto
73650.4 25293.4 lineto
poly1
0 0 0 setrgbcolor
71268.5 24880 413.386 cir1
0 0 0 setrgbcolor
69300 24880 413.386 cir1
0 0 0 setrgbcolor
67331.5 24880 413.386 cir1
0 0 0 setrgbcolor
65363 24880 413.386 cir1
0 0 0 setrgbcolor
newpath
62850.4 25293.4 moveto
62850.4 24466.6 lineto
62023.6 24466.6 lineto
62023.6 25293.4 lineto
62850.4 25293.4 lineto
poly1
0 0 0 setrgbcolor
60468.5 24880 413.386 cir1
0 0 0 setrgbcolor
58500 24880 413.386 cir1
0 0 0 setrgbcolor
56531.5 24880 413.386 cir1
0 0 0 setrgbcolor
54563 24880 413.386 cir1
0 0 0 setrgbcolor
newpath
51850.4 25293.4 moveto
51850.4 24466.6 lineto
51023.6 24466.6 lineto
51023.6 25293.4 lineto
51850.4 25293.4 lineto
poly1
0 0 0 setrgbcolor
49468.5 24880 413.386 cir1
0 0 0 setrgbcolor
47500 24880 413.386 cir1
0 0 0 setrgbcolor
45531.5 24880 413.386 cir1
0 0 0 setrgbcolor
43563 24880 413.386 cir1
0 0 0 setrgbcolor
newpath
41050.4 25293.4 moveto
41050.4 24466.6 lineto
40223.6 24466.6 lineto
40223.6 25293.4 lineto
41050.4 25293.4 lineto
poly1
0 0 0 setrgbcolor
38668.5 24880 413.386 cir1
0 0 0 setrgbcolor
36700 24880 413.386 cir1
0 0 0 setrgbcolor
34731.5 24880 413.386 cir1
0 0 0 setrgbcolor
32763 24880 413.386 cir1
0 0 0 setrgbcolor
newpath
30050.4 25293.4 moveto
30050.4 24466.6 lineto
29223.6 24466.6 lineto
29223.6 25293.4 lineto
30050.4 25293.4 lineto
poly1
0 0 0 setrgbcolor
27668.5 24880 413.386 cir1
0 0 0 setrgbcolor
25700 24880 413.386 cir1
0 0 0 setrgbcolor
23731.5 24880 413.386 cir1
0 0 0 setrgbcolor
21763 24880 413.386 cir1
0 0 0 setrgbcolor
669 setlinewidth
newpath
25200 50325.5 moveto
25200 51034.5 lineto
stroke
0 0 0 setrgbcolor
newpath
26102 50325.5 moveto
26102 51034.5 lineto
stroke
0 0 0 setrgbcolor
newpath
24298 50325.5 moveto
24298 51034.5 lineto
stroke
0 0 0 setrgbcolor
newpath
36400 50325.5 moveto
36400 51034.5 lineto
stroke
0 0 0 setrgbcolor
newpath
37302 50325.5 moveto
37302 51034.5 lineto
stroke
0 0 0 setrgbcolor
newpath
35498 50325.5 moveto
35498 51034.5 lineto
stroke
0 0 0 setrgbcolor
newpath
47500 50325.5 moveto
47500 51034.5 lineto
stroke
0 0 0 setrgbcolor
newpath
48402 50325.5 moveto
48402 51034.5 lineto
stroke
0 0 0 setrgbcolor
newpath
46598 50325.5 moveto
46598 51034.5 lineto
stroke
0 0 0 setrgbcolor
newpath
58500 50325.5 moveto
58500 51034.5 lineto
stroke
0 0 0 setrgbcolor
newpath
59402 50325.5 moveto
59402 51034.5 lineto
stroke
0 0 0 setrgbcolor
newpath
57598 50325.5 moveto
57598 51034.5 lineto
stroke
0 0 0 setrgbcolor
newpath
69400 50325.5 moveto
69400 51034.5 lineto
stroke
0 0 0 setrgbcolor
newpath
70302 50325.5 moveto
70302 51034.5 lineto
stroke
0 0 0 setrgbcolor
newpath
68498 50325.5 moveto
68498 51034.5 lineto
stroke
0 0 0 setrgbcolor
newpath
76200 49834.5 moveto
76200 49125.5 lineto
stroke
0 0 0 setrgbcolor
newpath
75298 49834.5 moveto
75298 49125.5 lineto
stroke
0 0 0 setrgbcolor
newpath
77102 49834.5 moveto
77102 49125.5 lineto
stroke
0 0 0 setrgbcolor
newpath
73754.5 43580 moveto
73045.5 43580 lineto
stroke
0 0 0 setrgbcolor
newpath
73754.5 44482 moveto
73045.5 44482 lineto
stroke
0 0 0 setrgbcolor
newpath
73754.5 42678 moveto
73045.5 42678 lineto
stroke
0 0 0 setrgbcolor
newpath
73845.5 29280 moveto
74554.5 29280 lineto
stroke
0 0 0 setrgbcolor
newpath
73845.5 28378 moveto
74554.5 28378 lineto
stroke
0 0 0 setrgbcolor
newpath
73845.5 30182 moveto
74554.5 30182 lineto
stroke
0 0 0 setrgbcolor
newpath
69300 38725.5 moveto
69300 39434.5 lineto
stroke
0 0 0 setrgbcolor
newpath
70202 38725.5 moveto
70202 39434.5 lineto
stroke
0 0 0 setrgbcolor
newpath
68398 38725.5 moveto
68398 39434.5 lineto
stroke
0 0 0 setrgbcolor
newpath
58500 38725.5 moveto
58500 39434.5 lineto
stroke
0 0 0 setrgbcolor
newpath
59402 38725.5 moveto
59402 39434.5 lineto
stroke
0 0 0 setrgbcolor
newpath
57598 38725.5 moveto
57598 39434.5 lineto
stroke
0 0 0 setrgbcolor
newpath
47500 38725.5 moveto
47500 39434.5 lineto
stroke
0 0 0 setrgbcolor
newpath
48402 38725.5 moveto
48402 39434.5 lineto
stroke
0 0 0 setrgbcolor
newpath
46598 38725.5 moveto
46598 39434.5 lineto
stroke
0 0 0 setrgbcolor
newpath
36800 38725.5 moveto
36800 39434.5 lineto
stroke
0 0 0 setrgbcolor
newpath
37702 38725.5 moveto
37702 39434.5 lineto
stroke
0 0 0 setrgbcolor
newpath
35898 38725.5 moveto
35898 39434.5 lineto
stroke
0 0 0 setrgbcolor
newpath
25700 38725.5 moveto
25700 39434.5 lineto
stroke
0 0 0 setrgbcolor
newpath
26602 38725.5 moveto
26602 39434.5 lineto
stroke
0 0 0 setrgbcolor
newpath
24798 38725.5 moveto
24798 39434.5 lineto
stroke
0 0 0 setrgbcolor
39.3701 setlinewidth
22200 50680 255.315 cir1
0 0 0 setrgbcolor
19200 50680 255.315 cir1
0 0 0 setrgbcolor
33600 50680 255.315 cir1
0 0 0 setrgbcolor
30600 50680 255.315 cir1
0 0 0 setrgbcolor
44800 50680 255.315 cir1
0 0 0 setrgbcolor
41800 50680 255.315 cir1
0 0 0 setrgbcolor
55800 50680 255.315 cir1
0 0 0 setrgbcolor
52800 50680 255.315 cir1
0 0 0 setrgbcolor
66800 50680 255.315 cir1
0 0 0 setrgbcolor
63800 50680 255.315 cir1
0 0 0 setrgbcolor
77600 47180 255.315 cir1
0 0 0 setrgbcolor
74600 47180 255.315 cir1
0 0 0 setrgbcolor
71100 42180 255.315 cir1
0 0 0 setrgbcolor
71100 45180 255.315 cir1
0 0 0 setrgbcolor
73300 32080 255.315 cir1
0 0 0 setrgbcolor
73300 35080 255.315 cir1
0 0 0 setrgbcolor
66400 39080 255.315 cir1
0 0 0 setrgbcolor
63400 39080 255.315 cir1
0 0 0 setrgbcolor
55900 39080 255.315 cir1
0 0 0 setrgbcolor
52900 39080 255.315 cir1
0 0 0 setrgbcolor
44800 38980 255.315 cir1
0 0 0 setrgbcolor
41800 38980 255.315 cir1
0 0 0 setrgbcolor
34200 39080 255.315 cir1
0 0 0 setrgbcolor
31200 39080 255.315 cir1
0 0 0 setrgbcolor
22400 39080 255.315 cir1
0 0 0 setrgbcolor
19400 39080 255.315 cir1
0 0 0 setrgbcolor
24300 55480 413.386 cir1
0 0 0 setrgbcolor
27300 55480 413.386 cir1
0 0 0 setrgbcolor
24300 61480 413.386 cir1
0 0 0 setrgbcolor
27300 60480 413.386 cir1
0 0 0 setrgbcolor
35200 55480 413.386 cir1
0 0 0 setrgbcolor
38200 55480 413.386 cir1
0 0 0 setrgbcolor
35200 61480 413.386 cir1
0 0 0 setrgbcolor
38200 60480 413.386 cir1
0 0 0 setrgbcolor
46100 55480 413.386 cir1
0 0 0 setrgbcolor
49100 55480 413.386 cir1
0 0 0 setrgbcolor
46100 61480 413.386 cir1
0 0 0 setrgbcolor
49100 60480 413.386 cir1
0 0 0 setrgbcolor
57000 55480 413.386 cir1
0 0 0 setrgbcolor
60000 55480 413.386 cir1
0 0 0 setrgbcolor
57000 61480 413.386 cir1
0 0 0 setrgbcolor
60000 60480 413.386 cir1
0 0 0 setrgbcolor
77100 55980 413.386 cir1
0 0 0 setrgbcolor
77100 52980 413.386 cir1
0 0 0 setrgbcolor
83100 55980 413.386 cir1
0 0 0 setrgbcolor
82100 52980 413.386 cir1
0 0 0 setrgbcolor
77100 44780 413.386 cir1
0 0 0 setrgbcolor
77100 41780 413.386 cir1
0 0 0 setrgbcolor
83100 44780 413.386 cir1
0 0 0 setrgbcolor
82100 41780 413.386 cir1
0 0 0 setrgbcolor
77100 33780 413.386 cir1
0 0 0 setrgbcolor
77100 30780 413.386 cir1
0 0 0 setrgbcolor
83100 33780 413.386 cir1
0 0 0 setrgbcolor
82100 30780 413.386 cir1
0 0 0 setrgbcolor
27200 34680 413.386 cir1
0 0 0 setrgbcolor
24200 34680 413.386 cir1
0 0 0 setrgbcolor
27200 28680 413.386 cir1
0 0 0 setrgbcolor
24200 29680 413.386 cir1
0 0 0 setrgbcolor
38200 34680 413.386 cir1
0 0 0 setrgbcolor
35200 34680 413.386 cir1
0 0 0 setrgbcolor
38200 28680 413.386 cir1
0 0 0 setrgbcolor
35200 29680 413.386 cir1
0 0 0 setrgbcolor
49000 34680 413.386 cir1
0 0 0 setrgbcolor
46000 34680 413.386 cir1
0 0 0 setrgbcolor
49000 28680 413.386 cir1
0 0 0 setrgbcolor
46000 29680 413.386 cir1
0 0 0 setrgbcolor
60000 34680 413.386 cir1
0 0 0 setrgbcolor
57000 34680 413.386 cir1
0 0 0 setrgbcolor
60000 28680 413.386 cir1
0 0 0 setrgbcolor
57000 29680 413.386 cir1
0 0 0 setrgbcolor
70800 34680 413.386 cir1
0 0 0 setrgbcolor
67800 34680 413.386 cir1
0 0 0 setrgbcolor
70800 28680 413.386 cir1
0 0 0 setrgbcolor
67800 29680 413.386 cir1
0 0 0 setrgbcolor
67900 55480 413.386 cir1
0 0 0 setrgbcolor
70900 55480 413.386 cir1
0 0 0 setrgbcolor
67900 61480 413.386 cir1
0 0 0 setrgbcolor
70900 60480 413.386 cir1
0 0 0 setrgbcolor
19300 42980 275.591 cir1
0 0 0 setrgbcolor
21100 42980 275.591 cir1
0 0 0 setrgbcolor
19300 41580 275.591 cir1
0 0 0 setrgbcolor
21100 41580 275.591 cir1
0 0 0 setrgbcolor
32100 40280 275.591 cir1
0 0 0 setrgbcolor
33600 40280 275.591 cir1
0 0 0 setrgbcolor
17500 42380 275.591 cir1
0 0 0 setrgbcolor
17500 44280 275.591 cir1
0 0 0 setrgbcolor
16400 48180 275.591 cir1
0 0 0 setrgbcolor
16400 50580 275.591 cir1
0 0 0 setrgbcolor
15700 52380 275.591 cir1
0 0 0 setrgbcolor
15700 54480 275.591 cir1
0 0 0 setrgbcolor
9700 40980 275.591 cir1
0 0 0 setrgbcolor
12300 40980 275.591 cir1
0 0 0 setrgbcolor
19400 40880 275.591 cir1
0 0 0 setrgbcolor
21100 40880 275.591 cir1
0 0 0 setrgbcolor
12100 31380 275.591 cir1
0 0 0 setrgbcolor
10200 31380 275.591 cir1
0 0 0 setrgbcolor
23000 52480 275.591 cir1
0 0 0 setrgbcolor
23000 48180 275.591 cir1
0 0 0 setrgbcolor
46700 47780 275.591 cir1
0 0 0 setrgbcolor
44600 47780 275.591 cir1
0 0 0 setrgbcolor
18200 52680 275.591 cir1
0 0 0 setrgbcolor
18200 48180 275.591 cir1
0 0 0 setrgbcolor
18200 43580 275.591 cir1
0 0 0 setrgbcolor
18200 42280 275.591 cir1
0 0 0 setrgbcolor
19300 42280 275.591 cir1
0 0 0 setrgbcolor
21100 42280 275.591 cir1
0 0 0 setrgbcolor
196.85 setlinewidth
newpath
19300 42980 moveto
21100 42980 lineto
stroke
0 0 0 setrgbcolor
newpath
19300 41580 moveto
21200 41580 lineto
stroke
0 0 0 setrgbcolor
newpath
21200 41580 moveto
21100 41580 lineto
stroke
0 0 0 setrgbcolor
newpath
32100 40280 moveto
33600 40280 lineto
stroke
0 0 0 setrgbcolor
newpath
17500 44280 moveto
17500 42380 lineto
stroke
0 0 0 setrgbcolor
newpath
16400 50580 moveto
16400 48180 lineto
stroke
0 0 0 setrgbcolor
newpath
15700 54480 moveto
15700 52380 lineto
stroke
0 0 0 setrgbcolor
newpath
12300 40980 moveto
9700 40980 lineto
stroke
0 0 0 setrgbcolor
newpath
19400 40880 moveto
21100 40880 lineto
stroke
0 0 0 setrgbcolor
newpath
12100 31380 moveto
10200 31380 lineto
stroke
0 0 0 setrgbcolor
newpath
23000 52480 moveto
23000 48180 lineto
stroke
0 0 0 setrgbcolor
newpath
46700 47780 moveto
44600 47780 lineto
stroke
0 0 0 setrgbcolor
newpath
18200 48180 moveto
18200 52680 lineto
stroke
0 0 0 setrgbcolor
newpath
18200 42280 moveto
18200 43580 lineto
stroke
0 0 0 setrgbcolor
newpath
21100 42280 moveto
19300 42280 lineto
stroke
1 1 1 setrgbcolor
39.3701 setlinewidth
19300 42980 118.11 cir1
21100 42980 118.11 cir1
19300 41580 118.11 cir1
21100 41580 118.11 cir1
32100 40280 118.11 cir1
33600 40280 118.11 cir1
17500 42380 118.11 cir1
17500 44280 118.11 cir1
16400 48180 118.11 cir1
16400 50580 118.11 cir1
15700 52380 118.11 cir1
15700 54480 118.11 cir1
9700 40980 118.11 cir1
12300 40980 118.11 cir1
19400 40880 118.11 cir1
21100 40880 118.11 cir1
12100 31380 118.11 cir1
10200 31380 118.11 cir1
23000 52480 118.11 cir1
23000 48180 118.11 cir1
46700 47780 118.11 cir1
44600 47780 118.11 cir1
18200 52680 118.11 cir1
18200 48180 118.11 cir1
18200 43580 118.11 cir1
18200 42280 118.11 cir1
19300 42280 118.11 cir1
21100 42280 118.11 cir1
18168.5 64480 216.535 cir1
16200 64480 216.535 cir1
18168.5 57280 216.535 cir1
16200 57280 216.535 cir1
23699.8 53779 118.315 cir1
27699.8 53779 118.315 cir1
34699.8 53679 118.315 cir1
38699.8 53679 118.315 cir1
45499.8 53579 118.315 cir1
49499.8 53579 118.315 cir1
56499.8 53579 118.315 cir1
60499.8 53579 118.315 cir1
67299.8 53479 118.315 cir1
71299.8 53479 118.315 cir1
75599 56580.2 118.315 cir1
75599 52580.2 118.315 cir1
75599 45380.2 118.315 cir1
75599 41380.2 118.315 cir1
75699 34380.2 118.315 cir1
75699 30380.2 118.315 cir1
71400.2 36381 118.315 cir1
67400.2 36381 118.315 cir1
60600.2 36481 118.315 cir1
56600.2 36481 118.315 cir1
49700.2 36481 118.315 cir1
45700.2 36481 118.315 cir1
38600.2 36481 118.315 cir1
34600.2 36481 118.315 cir1
27700.2 36481 118.315 cir1
23700.2 36481 118.315 cir1
400 setlinewidth
newpath
11170 61280 moveto
11170 60680 lineto
stroke
newpath
13570 61280 moveto
13570 60680 lineto
stroke
newpath
11770 58980 moveto
12370 58980 lineto
stroke
39.3701 setlinewidth
13900 47980 160.315 cir1
14900 47980 160.315 cir1
13900 46980 160.315 cir1
14900 46980 160.315 cir1
13900 45980 160.315 cir1
14900 45980 160.315 cir1
13900 44980 160.315 cir1
14900 44980 160.315 cir1
13900 43980 160.315 cir1
14900 43980 160.315 cir1
13900 42980 160.315 cir1
14900 42980 160.315 cir1
13900 41980 160.315 cir1
14900 41980 160.315 cir1
13900 40980 160.315 cir1
14900 40980 160.315 cir1
13900 39980 160.315 cir1
14900 39980 160.315 cir1
13900 38980 160.315 cir1
14900 38980 160.315 cir1
14300 51480 510.315 cir1
13900 37980 160.315 cir1
14900 37980 160.315 cir1
13900 36980 160.315 cir1
14900 36980 160.315 cir1
13900 35980 160.315 cir1
14900 35980 160.315 cir1
13900 34980 160.315 cir1
14900 34980 160.315 cir1
13900 33980 160.315 cir1
14900 33980 160.315 cir1
13900 32980 160.315 cir1
14900 32980 160.315 cir1
13900 31980 160.315 cir1
14900 31980 160.315 cir1
13900 30980 160.315 cir1
14900 30980 160.315 cir1
13900 29980 160.315 cir1
14900 29980 160.315 cir1
13900 28980 160.315 cir1
14900 28980 160.315 cir1
14300 25480 510.315 cir1
21813 65690 275.591 cir1
23781.5 65690 275.591 cir1
25750 65690 275.591 cir1
27718.5 65690 275.591 cir1
29687 65690 275.591 cir1
32763 65680 275.591 cir1
34731.5 65680 275.591 cir1
36700 65680 275.591 cir1
38668.5 65680 275.591 cir1
40637 65680 275.591 cir1
43663 65680 275.591 cir1
45631.5 65680 275.591 cir1
47600 65680 275.591 cir1
49568.5 65680 275.591 cir1
51537 65680 275.591 cir1
54563 65680 275.591 cir1
56531.5 65680 275.591 cir1
58500 65680 275.591 cir1
60468.5 65680 275.591 cir1
62437 65680 275.591 cir1
65463 65680 275.591 cir1
67431.5 65680 275.591 cir1
69400 65680 275.591 cir1
71368.5 65680 275.591 cir1
73337 65680 275.591 cir1
86900 58417 275.591 cir1
86900 56448.5 275.591 cir1
86900 54480 275.591 cir1
86900 52511.5 275.591 cir1
86900 50543 275.591 cir1
86900 47217 275.591 cir1
86900 45248.5 275.591 cir1
86900 43280 275.591 cir1
86900 41311.5 275.591 cir1
86900 39343 275.591 cir1
86900 36217 275.591 cir1
86900 34248.5 275.591 cir1
86900 32280 275.591 cir1
86900 30311.5 275.591 cir1
86900 28343 275.591 cir1
73237 24880 275.591 cir1
71268.5 24880 275.591 cir1
69300 24880 275.591 cir1
67331.5 24880 275.591 cir1
65363 24880 275.591 cir1
62437 24880 275.591 cir1
60468.5 24880 275.591 cir1
58500 24880 275.591 cir1
56531.5 24880 275.591 cir1
54563 24880 275.591 cir1
51437 24880 275.591 cir1
49468.5 24880 275.591 cir1
47500 24880 275.591 cir1
45531.5 24880 275.591 cir1
43563 24880 275.591 cir1
40637 24880 275.591 cir1
38668.5 24880 275.591 cir1
36700 24880 275.591 cir1
34731.5 24880 275.591 cir1
32763 24880 275.591 cir1
29637 24880 275.591 cir1
27668.5 24880 275.591 cir1
25700 24880 275.591 cir1
23731.5 24880 275.591 cir1
21763 24880 275.591 cir1
25200 50680 255.815 cir1
26102 50680 255.815 cir1
24298 50680 255.815 cir1
36400 50680 255.815 cir1
37302 50680 255.815 cir1
35498 50680 255.815 cir1
47500 50680 255.815 cir1
48402 50680 255.815 cir1
46598 50680 255.815 cir1
58500 50680 255.815 cir1
59402 50680 255.815 cir1
57598 50680 255.815 cir1
69400 50680 255.815 cir1
70302 50680 255.815 cir1
68498 50680 255.815 cir1
76200 49480 255.815 cir1
75298 49480 255.815 cir1
77102 49480 255.815 cir1
73400 43580 255.815 cir1
73400 44482 255.815 cir1
73400 42678 255.815 cir1
74200 29280 255.815 cir1
74200 28378 255.815 cir1
74200 30182 255.815 cir1
69300 39080 255.815 cir1
70202 39080 255.815 cir1
68398 39080 255.815 cir1
58500 39080 255.815 cir1
59402 39080 255.815 cir1
57598 39080 255.815 cir1
47500 39080 255.815 cir1
48402 39080 255.815 cir1
46598 39080 255.815 cir1
36800 39080 255.815 cir1
37702 39080 255.815 cir1
35898 39080 255.815 cir1
25700 39080 255.815 cir1
26602 39080 255.815 cir1
24798 39080 255.815 cir1
22200 50680 140.315 cir1
19200 50680 140.315 cir1
33600 50680 140.315 cir1
30600 50680 140.315 cir1
44800 50680 140.315 cir1
41800 50680 140.315 cir1
55800 50680 140.315 cir1
52800 50680 140.315 cir1
66800 50680 140.315 cir1
63800 50680 140.315 cir1
77600 47180 140.315 cir1
74600 47180 140.315 cir1
71100 42180 140.315 cir1
71100 45180 140.315 cir1
73300 32080 140.315 cir1
73300 35080 140.315 cir1
66400 39080 140.315 cir1
63400 39080 140.315 cir1
55900 39080 140.315 cir1
52900 39080 140.315 cir1
44800 38980 140.315 cir1
41800 38980 140.315 cir1
34200 39080 140.315 cir1
31200 39080 140.315 cir1
22400 39080 140.315 cir1
19400 39080 140.315 cir1
24300 55480 230.315 cir1
27300 55480 230.315 cir1
24300 61480 230.315 cir1
27300 60480 230.315 cir1
35200 55480 230.315 cir1
38200 55480 230.315 cir1
35200 61480 230.315 cir1
38200 60480 230.315 cir1
46100 55480 230.315 cir1
49100 55480 230.315 cir1
46100 61480 230.315 cir1
49100 60480 230.315 cir1
57000 55480 230.315 cir1
60000 55480 230.315 cir1
57000 61480 230.315 cir1
60000 60480 230.315 cir1
77100 55980 230.315 cir1
77100 52980 230.315 cir1
83100 55980 230.315 cir1
82100 52980 230.315 cir1
77100 44780 230.315 cir1
77100 41780 230.315 cir1
83100 44780 230.315 cir1
82100 41780 230.315 cir1
77100 33780 230.315 cir1
77100 30780 230.315 cir1
83100 33780 230.315 cir1
82100 30780 230.315 cir1
27200 34680 230.315 cir1
24200 34680 230.315 cir1
27200 28680 230.315 cir1
24200 29680 230.315 cir1
38200 34680 230.315 cir1
35200 34680 230.315 cir1
38200 28680 230.315 cir1
35200 29680 230.315 cir1
49000 34680 230.315 cir1
46000 34680 230.315 cir1
49000 28680 230.315 cir1
46000 29680 230.315 cir1
60000 34680 230.315 cir1
57000 34680 230.315 cir1
60000 28680 230.315 cir1
57000 29680 230.315 cir1
70800 34680 230.315 cir1
67800 34680 230.315 cir1
70800 28680 230.315 cir1
67800 29680 230.315 cir1
67900 55480 230.315 cir1
70900 55480 230.315 cir1
67900 61480 230.315 cir1
70900 60480 230.315 cir1
0 0 0 setrgbcolor
showpage
grestore
%%EOF
